(kicad_pcb (version 20171130) (host pcbnew "(5.1.4)-1")

  (general
    (thickness 1.6)
    (drawings 29)
    (tracks 184)
    (zones 0)
    (modules 22)
    (nets 19)
  )

  (page A4)
  (title_block
    (rev v0.1.0)
  )

  (layers
    (0 F.Cu signal)
    (31 B.Cu signal)
    (32 B.Adhes user)
    (33 F.Adhes user)
    (34 B.Paste user)
    (35 F.Paste user)
    (36 B.SilkS user)
    (37 F.SilkS user)
    (38 B.Mask user)
    (39 F.Mask user)
    (40 Dwgs.User user)
    (41 Cmts.User user)
    (42 Eco1.User user)
    (43 Eco2.User user)
    (44 Edge.Cuts user)
    (45 Margin user)
    (46 B.CrtYd user)
    (47 F.CrtYd user)
    (48 B.Fab user)
    (49 F.Fab user)
  )

  (setup
    (last_trace_width 1)
    (user_trace_width 0.25)
    (user_trace_width 0.3)
    (user_trace_width 0.5)
    (user_trace_width 1)
    (trace_clearance 0.2)
    (zone_clearance 0.508)
    (zone_45_only no)
    (trace_min 0.2)
    (via_size 0.8)
    (via_drill 0.4)
    (via_min_size 0.4)
    (via_min_drill 0.3)
    (uvia_size 0.3)
    (uvia_drill 0.1)
    (uvias_allowed no)
    (uvia_min_size 0.2)
    (uvia_min_drill 0.1)
    (edge_width 0.05)
    (segment_width 0.2)
    (pcb_text_width 0.3)
    (pcb_text_size 1.5 1.5)
    (mod_edge_width 0.12)
    (mod_text_size 1 1)
    (mod_text_width 0.15)
    (pad_size 1.524 1.524)
    (pad_drill 0.762)
    (pad_to_mask_clearance 0.051)
    (solder_mask_min_width 0.25)
    (aux_axis_origin 0 0)
    (visible_elements 7FFFFFFF)
    (pcbplotparams
      (layerselection 0x010fc_ffffffff)
      (usegerberextensions false)
      (usegerberattributes false)
      (usegerberadvancedattributes false)
      (creategerberjobfile false)
      (excludeedgelayer true)
      (linewidth 0.100000)
      (plotframeref false)
      (viasonmask false)
      (mode 1)
      (useauxorigin false)
      (hpglpennumber 1)
      (hpglpenspeed 20)
      (hpglpendiameter 15.000000)
      (psnegative false)
      (psa4output false)
      (plotreference true)
      (plotvalue true)
      (plotinvisibletext false)
      (padsonsilk false)
      (subtractmaskfromsilk false)
      (outputformat 1)
      (mirror false)
      (drillshape 0)
      (scaleselection 1)
      (outputdirectory "assembly/"))
  )

  (net 0 "")
  (net 1 GND)
  (net 2 +3V3)
  (net 3 +5V)
  (net 4 SCL)
  (net 5 SDA)
  (net 6 STEP)
  (net 7 DIR)
  (net 8 SPI_SCK)
  (net 9 SPI_SS)
  (net 10 SPI_DC)
  (net 11 SPI_RESET)
  (net 12 SPEED_POT)
  (net 13 SPI_MOSI)
  (net 14 MOTOR_ENABLE)
  (net 15 POWER_LED)
  (net 16 ERROR_LED)
  (net 17 "Net-(D1-Pad2)")
  (net 18 "Net-(D2-Pad2)")

  (net_class Default "This is the default net class."
    (clearance 0.2)
    (trace_width 0.25)
    (via_dia 0.8)
    (via_drill 0.4)
    (uvia_dia 0.3)
    (uvia_drill 0.1)
    (add_net +24V)
    (add_net +3V3)
    (add_net +5V)
    (add_net DIR)
    (add_net ERROR_LED)
    (add_net GND)
    (add_net MOTOR_ENABLE)
    (add_net "Net-(D1-Pad2)")
    (add_net "Net-(D2-Pad2)")
    (add_net "Net-(U1-Pad10)")
    (add_net "Net-(U1-Pad11)")
    (add_net "Net-(U1-Pad13)")
    (add_net "Net-(U1-Pad14)")
    (add_net "Net-(U1-Pad16)")
    (add_net "Net-(U1-Pad17)")
    (add_net "Net-(U1-Pad18)")
    (add_net "Net-(U1-Pad19)")
    (add_net "Net-(U1-Pad20)")
    (add_net "Net-(U1-Pad21)")
    (add_net "Net-(U1-Pad22)")
    (add_net "Net-(U1-Pad24)")
    (add_net "Net-(U1-Pad25)")
    (add_net "Net-(U1-Pad3)")
    (add_net "Net-(U1-Pad31)")
    (add_net "Net-(U1-Pad34)")
    (add_net "Net-(U1-Pad35)")
    (add_net "Net-(U1-Pad4)")
    (add_net "Net-(U1-Pad5)")
    (add_net "Net-(U1-Pad9)")
    (add_net POWER_LED)
    (add_net SCL)
    (add_net SDA)
    (add_net SPEED_POT)
    (add_net SPI_DC)
    (add_net SPI_MOSI)
    (add_net SPI_RESET)
    (add_net SPI_SCK)
    (add_net SPI_SS)
    (add_net STEP)
  )

  (module digikey-footprints:TO-220-3 (layer F.Cu) (tedit 5AFA02CB) (tstamp 5FAB3394)
    (at 149.86 128.27 270)
    (descr http://www.st.com/content/ccc/resource/technical/document/datasheet/f9/ed/f5/44/26/b9/43/a4/CD00000911.pdf/files/CD00000911.pdf/jcr:content/translations/en.CD00000911.pdf)
    (path /5F9A28D3)
    (fp_text reference U3 (at 2.62 -3.22 90) (layer F.SilkS)
      (effects (font (size 1 1) (thickness 0.15)))
    )
    (fp_text value LD1117V33 (at 2.27 3.63 90) (layer F.Fab)
      (effects (font (size 1 1) (thickness 0.15)))
    )
    (fp_line (start -2.46 2.25) (end 7.54 2.25) (layer F.Fab) (width 0.1))
    (fp_line (start -2.46 -2.25) (end 7.54 -2.25) (layer F.Fab) (width 0.1))
    (fp_line (start -2.46 -2.25) (end -2.46 2.25) (layer F.Fab) (width 0.1))
    (fp_line (start 7.54 2.25) (end 7.54 -2.25) (layer F.Fab) (width 0.1))
    (fp_text user %R (at 2.52 -0.01 90) (layer F.Fab)
      (effects (font (size 1 1) (thickness 0.15)))
    )
    (fp_line (start 7.64 -2.4) (end 7.64 -2) (layer F.SilkS) (width 0.1))
    (fp_line (start 7.24 -2.4) (end 7.64 -2.4) (layer F.SilkS) (width 0.1))
    (fp_line (start -2.56 -2.4) (end -2.16 -2.4) (layer F.SilkS) (width 0.1))
    (fp_line (start -2.56 -2.4) (end -2.56 -2) (layer F.SilkS) (width 0.1))
    (fp_line (start -2.56 2.4) (end -2.16 2.4) (layer F.SilkS) (width 0.1))
    (fp_line (start -2.56 2.4) (end -2.56 -2) (layer F.SilkS) (width 0.1))
    (fp_line (start 7.64 2.4) (end 7.24 2.4) (layer F.SilkS) (width 0.1))
    (fp_line (start 7.64 2.4) (end 7.64 2) (layer F.SilkS) (width 0.1))
    (fp_line (start 7.79 -2.5) (end 7.79 2.5) (layer F.CrtYd) (width 0.05))
    (fp_line (start -2.71 -2.5) (end -2.71 2.5) (layer F.CrtYd) (width 0.05))
    (fp_line (start -2.71 -2.5) (end 7.79 -2.5) (layer F.CrtYd) (width 0.05))
    (fp_line (start -2.71 2.5) (end 7.79 2.5) (layer F.CrtYd) (width 0.05))
    (fp_line (start -2.45 -1.3) (end 7.54 -1.3) (layer F.Fab) (width 0.1))
    (fp_line (start -2.56 -1.29) (end 7.54 -1.29) (layer F.SilkS) (width 0.1))
    (pad 3 thru_hole circle (at 5.08 0 270) (size 2 2) (drill 1) (layers *.Cu *.Mask)
      (net 3 +5V))
    (pad 2 thru_hole circle (at 2.54 0 270) (size 2 2) (drill 1) (layers *.Cu *.Mask)
      (net 2 +3V3))
    (pad 1 thru_hole rect (at 0 0 270) (size 2 2) (drill 1) (layers *.Cu *.Mask)
      (net 1 GND))
  )

  (module Resistor_THT:R_Axial_DIN0207_L6.3mm_D2.5mm_P10.16mm_Horizontal (layer F.Cu) (tedit 5AE5139B) (tstamp 5FAB0803)
    (at 175.26 129.54)
    (descr "Resistor, Axial_DIN0207 series, Axial, Horizontal, pin pitch=10.16mm, 0.25W = 1/4W, length*diameter=6.3*2.5mm^2, http://cdn-reichelt.de/documents/datenblatt/B400/1_4W%23YAG.pdf")
    (tags "Resistor Axial_DIN0207 series Axial Horizontal pin pitch 10.16mm 0.25W = 1/4W length 6.3mm diameter 2.5mm")
    (path /5FAB5577)
    (fp_text reference R2 (at 5.08 -2.37) (layer F.SilkS)
      (effects (font (size 1 1) (thickness 0.15)))
    )
    (fp_text value 100 (at 5.08 2.37) (layer F.Fab)
      (effects (font (size 1 1) (thickness 0.15)))
    )
    (fp_text user %R (at 5.08 0) (layer F.Fab)
      (effects (font (size 1 1) (thickness 0.15)))
    )
    (fp_line (start 11.21 -1.5) (end -1.05 -1.5) (layer F.CrtYd) (width 0.05))
    (fp_line (start 11.21 1.5) (end 11.21 -1.5) (layer F.CrtYd) (width 0.05))
    (fp_line (start -1.05 1.5) (end 11.21 1.5) (layer F.CrtYd) (width 0.05))
    (fp_line (start -1.05 -1.5) (end -1.05 1.5) (layer F.CrtYd) (width 0.05))
    (fp_line (start 9.12 0) (end 8.35 0) (layer F.SilkS) (width 0.12))
    (fp_line (start 1.04 0) (end 1.81 0) (layer F.SilkS) (width 0.12))
    (fp_line (start 8.35 -1.37) (end 1.81 -1.37) (layer F.SilkS) (width 0.12))
    (fp_line (start 8.35 1.37) (end 8.35 -1.37) (layer F.SilkS) (width 0.12))
    (fp_line (start 1.81 1.37) (end 8.35 1.37) (layer F.SilkS) (width 0.12))
    (fp_line (start 1.81 -1.37) (end 1.81 1.37) (layer F.SilkS) (width 0.12))
    (fp_line (start 10.16 0) (end 8.23 0) (layer F.Fab) (width 0.1))
    (fp_line (start 0 0) (end 1.93 0) (layer F.Fab) (width 0.1))
    (fp_line (start 8.23 -1.25) (end 1.93 -1.25) (layer F.Fab) (width 0.1))
    (fp_line (start 8.23 1.25) (end 8.23 -1.25) (layer F.Fab) (width 0.1))
    (fp_line (start 1.93 1.25) (end 8.23 1.25) (layer F.Fab) (width 0.1))
    (fp_line (start 1.93 -1.25) (end 1.93 1.25) (layer F.Fab) (width 0.1))
    (pad 2 thru_hole oval (at 10.16 0) (size 1.6 1.6) (drill 0.8) (layers *.Cu *.Mask)
      (net 18 "Net-(D2-Pad2)"))
    (pad 1 thru_hole circle (at 0 0) (size 1.6 1.6) (drill 0.8) (layers *.Cu *.Mask)
      (net 16 ERROR_LED))
    (model ${KISYS3DMOD}/Resistor_THT.3dshapes/R_Axial_DIN0207_L6.3mm_D2.5mm_P10.16mm_Horizontal.wrl
      (at (xyz 0 0 0))
      (scale (xyz 1 1 1))
      (rotate (xyz 0 0 0))
    )
  )

  (module Resistor_THT:R_Axial_DIN0207_L6.3mm_D2.5mm_P10.16mm_Horizontal (layer F.Cu) (tedit 5AE5139B) (tstamp 5FAB0833)
    (at 170.18 129.54)
    (descr "Resistor, Axial_DIN0207 series, Axial, Horizontal, pin pitch=10.16mm, 0.25W = 1/4W, length*diameter=6.3*2.5mm^2, http://cdn-reichelt.de/documents/datenblatt/B400/1_4W%23YAG.pdf")
    (tags "Resistor Axial_DIN0207 series Axial Horizontal pin pitch 10.16mm 0.25W = 1/4W length 6.3mm diameter 2.5mm")
    (path /5FAB0C34)
    (fp_text reference R1 (at 5.08 -2.37) (layer F.SilkS)
      (effects (font (size 1 1) (thickness 0.15)))
    )
    (fp_text value 100 (at 5.08 2.37) (layer F.Fab)
      (effects (font (size 1 1) (thickness 0.15)))
    )
    (fp_text user %R (at 5.08 0) (layer F.Fab)
      (effects (font (size 1 1) (thickness 0.15)))
    )
    (fp_line (start 11.21 -1.5) (end -1.05 -1.5) (layer F.CrtYd) (width 0.05))
    (fp_line (start 11.21 1.5) (end 11.21 -1.5) (layer F.CrtYd) (width 0.05))
    (fp_line (start -1.05 1.5) (end 11.21 1.5) (layer F.CrtYd) (width 0.05))
    (fp_line (start -1.05 -1.5) (end -1.05 1.5) (layer F.CrtYd) (width 0.05))
    (fp_line (start 9.12 0) (end 8.35 0) (layer F.SilkS) (width 0.12))
    (fp_line (start 1.04 0) (end 1.81 0) (layer F.SilkS) (width 0.12))
    (fp_line (start 8.35 -1.37) (end 1.81 -1.37) (layer F.SilkS) (width 0.12))
    (fp_line (start 8.35 1.37) (end 8.35 -1.37) (layer F.SilkS) (width 0.12))
    (fp_line (start 1.81 1.37) (end 8.35 1.37) (layer F.SilkS) (width 0.12))
    (fp_line (start 1.81 -1.37) (end 1.81 1.37) (layer F.SilkS) (width 0.12))
    (fp_line (start 10.16 0) (end 8.23 0) (layer F.Fab) (width 0.1))
    (fp_line (start 0 0) (end 1.93 0) (layer F.Fab) (width 0.1))
    (fp_line (start 8.23 -1.25) (end 1.93 -1.25) (layer F.Fab) (width 0.1))
    (fp_line (start 8.23 1.25) (end 8.23 -1.25) (layer F.Fab) (width 0.1))
    (fp_line (start 1.93 1.25) (end 8.23 1.25) (layer F.Fab) (width 0.1))
    (fp_line (start 1.93 -1.25) (end 1.93 1.25) (layer F.Fab) (width 0.1))
    (pad 2 thru_hole oval (at 10.16 0) (size 1.6 1.6) (drill 0.8) (layers *.Cu *.Mask)
      (net 17 "Net-(D1-Pad2)"))
    (pad 1 thru_hole circle (at 0 0) (size 1.6 1.6) (drill 0.8) (layers *.Cu *.Mask)
      (net 15 POWER_LED))
    (model ${KISYS3DMOD}/Resistor_THT.3dshapes/R_Axial_DIN0207_L6.3mm_D2.5mm_P10.16mm_Horizontal.wrl
      (at (xyz 0 0 0))
      (scale (xyz 1 1 1))
      (rotate (xyz 0 0 0))
    )
  )

  (module LED_THT:LED_D3.0mm (layer F.Cu) (tedit 587A3A7B) (tstamp 5FAB198B)
    (at 175.26 125.73 180)
    (descr "LED, diameter 3.0mm, 2 pins")
    (tags "LED diameter 3.0mm 2 pins")
    (path /5FAFE7FC)
    (fp_text reference D2 (at 1.27 -2.96) (layer F.SilkS)
      (effects (font (size 1 1) (thickness 0.15)))
    )
    (fp_text value RED (at 1.27 2.96) (layer F.Fab)
      (effects (font (size 1 1) (thickness 0.15)))
    )
    (fp_line (start 3.7 -2.25) (end -1.15 -2.25) (layer F.CrtYd) (width 0.05))
    (fp_line (start 3.7 2.25) (end 3.7 -2.25) (layer F.CrtYd) (width 0.05))
    (fp_line (start -1.15 2.25) (end 3.7 2.25) (layer F.CrtYd) (width 0.05))
    (fp_line (start -1.15 -2.25) (end -1.15 2.25) (layer F.CrtYd) (width 0.05))
    (fp_line (start -0.29 1.08) (end -0.29 1.236) (layer F.SilkS) (width 0.12))
    (fp_line (start -0.29 -1.236) (end -0.29 -1.08) (layer F.SilkS) (width 0.12))
    (fp_line (start -0.23 -1.16619) (end -0.23 1.16619) (layer F.Fab) (width 0.1))
    (fp_circle (center 1.27 0) (end 2.77 0) (layer F.Fab) (width 0.1))
    (fp_arc (start 1.27 0) (end 0.229039 1.08) (angle -87.9) (layer F.SilkS) (width 0.12))
    (fp_arc (start 1.27 0) (end 0.229039 -1.08) (angle 87.9) (layer F.SilkS) (width 0.12))
    (fp_arc (start 1.27 0) (end -0.29 1.235516) (angle -108.8) (layer F.SilkS) (width 0.12))
    (fp_arc (start 1.27 0) (end -0.29 -1.235516) (angle 108.8) (layer F.SilkS) (width 0.12))
    (fp_arc (start 1.27 0) (end -0.23 -1.16619) (angle 284.3) (layer F.Fab) (width 0.1))
    (pad 2 thru_hole circle (at 2.54 0 180) (size 1.8 1.8) (drill 0.9) (layers *.Cu *.Mask)
      (net 18 "Net-(D2-Pad2)"))
    (pad 1 thru_hole rect (at 0 0 180) (size 1.8 1.8) (drill 0.9) (layers *.Cu *.Mask)
      (net 1 GND))
    (model ${KISYS3DMOD}/LED_THT.3dshapes/LED_D3.0mm.wrl
      (at (xyz 0 0 0))
      (scale (xyz 1 1 1))
      (rotate (xyz 0 0 0))
    )
  )

  (module LED_THT:LED_D3.0mm (layer F.Cu) (tedit 587A3A7B) (tstamp 5FAB17C6)
    (at 170.18 125.73 180)
    (descr "LED, diameter 3.0mm, 2 pins")
    (tags "LED diameter 3.0mm 2 pins")
    (path /5FAFD183)
    (fp_text reference D1 (at 1.27 -2.96) (layer F.SilkS)
      (effects (font (size 1 1) (thickness 0.15)))
    )
    (fp_text value GREEN (at 1.27 2.96) (layer F.Fab)
      (effects (font (size 1 1) (thickness 0.15)))
    )
    (fp_line (start 3.7 -2.25) (end -1.15 -2.25) (layer F.CrtYd) (width 0.05))
    (fp_line (start 3.7 2.25) (end 3.7 -2.25) (layer F.CrtYd) (width 0.05))
    (fp_line (start -1.15 2.25) (end 3.7 2.25) (layer F.CrtYd) (width 0.05))
    (fp_line (start -1.15 -2.25) (end -1.15 2.25) (layer F.CrtYd) (width 0.05))
    (fp_line (start -0.29 1.08) (end -0.29 1.236) (layer F.SilkS) (width 0.12))
    (fp_line (start -0.29 -1.236) (end -0.29 -1.08) (layer F.SilkS) (width 0.12))
    (fp_line (start -0.23 -1.16619) (end -0.23 1.16619) (layer F.Fab) (width 0.1))
    (fp_circle (center 1.27 0) (end 2.77 0) (layer F.Fab) (width 0.1))
    (fp_arc (start 1.27 0) (end 0.229039 1.08) (angle -87.9) (layer F.SilkS) (width 0.12))
    (fp_arc (start 1.27 0) (end 0.229039 -1.08) (angle 87.9) (layer F.SilkS) (width 0.12))
    (fp_arc (start 1.27 0) (end -0.29 1.235516) (angle -108.8) (layer F.SilkS) (width 0.12))
    (fp_arc (start 1.27 0) (end -0.29 -1.235516) (angle 108.8) (layer F.SilkS) (width 0.12))
    (fp_arc (start 1.27 0) (end -0.23 -1.16619) (angle 284.3) (layer F.Fab) (width 0.1))
    (pad 2 thru_hole circle (at 2.54 0 180) (size 1.8 1.8) (drill 0.9) (layers *.Cu *.Mask)
      (net 17 "Net-(D1-Pad2)"))
    (pad 1 thru_hole rect (at 0 0 180) (size 1.8 1.8) (drill 0.9) (layers *.Cu *.Mask)
      (net 1 GND))
    (model ${KISYS3DMOD}/LED_THT.3dshapes/LED_D3.0mm.wrl
      (at (xyz 0 0 0))
      (scale (xyz 1 1 1))
      (rotate (xyz 0 0 0))
    )
  )

  (module Capacitor_THT:CP_Radial_D4.0mm_P2.00mm (layer F.Cu) (tedit 5AE50EF0) (tstamp 5FAB01CD)
    (at 142.24 130.81 270)
    (descr "CP, Radial series, Radial, pin pitch=2.00mm, , diameter=4mm, Electrolytic Capacitor")
    (tags "CP Radial series Radial pin pitch 2.00mm  diameter 4mm Electrolytic Capacitor")
    (path /5FA1BD0B)
    (fp_text reference C2 (at 1 -3.25 90) (layer F.SilkS)
      (effects (font (size 1 1) (thickness 0.15)))
    )
    (fp_text value 10uF (at 1 3.25 90) (layer F.Fab)
      (effects (font (size 1 1) (thickness 0.15)))
    )
    (fp_text user %R (at 1 0 90) (layer F.Fab)
      (effects (font (size 0.8 0.8) (thickness 0.12)))
    )
    (fp_line (start -1.069801 -1.395) (end -1.069801 -0.995) (layer F.SilkS) (width 0.12))
    (fp_line (start -1.269801 -1.195) (end -0.869801 -1.195) (layer F.SilkS) (width 0.12))
    (fp_line (start 3.081 -0.37) (end 3.081 0.37) (layer F.SilkS) (width 0.12))
    (fp_line (start 3.041 -0.537) (end 3.041 0.537) (layer F.SilkS) (width 0.12))
    (fp_line (start 3.001 -0.664) (end 3.001 0.664) (layer F.SilkS) (width 0.12))
    (fp_line (start 2.961 -0.768) (end 2.961 0.768) (layer F.SilkS) (width 0.12))
    (fp_line (start 2.921 -0.859) (end 2.921 0.859) (layer F.SilkS) (width 0.12))
    (fp_line (start 2.881 -0.94) (end 2.881 0.94) (layer F.SilkS) (width 0.12))
    (fp_line (start 2.841 -1.013) (end 2.841 1.013) (layer F.SilkS) (width 0.12))
    (fp_line (start 2.801 0.84) (end 2.801 1.08) (layer F.SilkS) (width 0.12))
    (fp_line (start 2.801 -1.08) (end 2.801 -0.84) (layer F.SilkS) (width 0.12))
    (fp_line (start 2.761 0.84) (end 2.761 1.142) (layer F.SilkS) (width 0.12))
    (fp_line (start 2.761 -1.142) (end 2.761 -0.84) (layer F.SilkS) (width 0.12))
    (fp_line (start 2.721 0.84) (end 2.721 1.2) (layer F.SilkS) (width 0.12))
    (fp_line (start 2.721 -1.2) (end 2.721 -0.84) (layer F.SilkS) (width 0.12))
    (fp_line (start 2.681 0.84) (end 2.681 1.254) (layer F.SilkS) (width 0.12))
    (fp_line (start 2.681 -1.254) (end 2.681 -0.84) (layer F.SilkS) (width 0.12))
    (fp_line (start 2.641 0.84) (end 2.641 1.304) (layer F.SilkS) (width 0.12))
    (fp_line (start 2.641 -1.304) (end 2.641 -0.84) (layer F.SilkS) (width 0.12))
    (fp_line (start 2.601 0.84) (end 2.601 1.351) (layer F.SilkS) (width 0.12))
    (fp_line (start 2.601 -1.351) (end 2.601 -0.84) (layer F.SilkS) (width 0.12))
    (fp_line (start 2.561 0.84) (end 2.561 1.396) (layer F.SilkS) (width 0.12))
    (fp_line (start 2.561 -1.396) (end 2.561 -0.84) (layer F.SilkS) (width 0.12))
    (fp_line (start 2.521 0.84) (end 2.521 1.438) (layer F.SilkS) (width 0.12))
    (fp_line (start 2.521 -1.438) (end 2.521 -0.84) (layer F.SilkS) (width 0.12))
    (fp_line (start 2.481 0.84) (end 2.481 1.478) (layer F.SilkS) (width 0.12))
    (fp_line (start 2.481 -1.478) (end 2.481 -0.84) (layer F.SilkS) (width 0.12))
    (fp_line (start 2.441 0.84) (end 2.441 1.516) (layer F.SilkS) (width 0.12))
    (fp_line (start 2.441 -1.516) (end 2.441 -0.84) (layer F.SilkS) (width 0.12))
    (fp_line (start 2.401 0.84) (end 2.401 1.552) (layer F.SilkS) (width 0.12))
    (fp_line (start 2.401 -1.552) (end 2.401 -0.84) (layer F.SilkS) (width 0.12))
    (fp_line (start 2.361 0.84) (end 2.361 1.587) (layer F.SilkS) (width 0.12))
    (fp_line (start 2.361 -1.587) (end 2.361 -0.84) (layer F.SilkS) (width 0.12))
    (fp_line (start 2.321 0.84) (end 2.321 1.619) (layer F.SilkS) (width 0.12))
    (fp_line (start 2.321 -1.619) (end 2.321 -0.84) (layer F.SilkS) (width 0.12))
    (fp_line (start 2.281 0.84) (end 2.281 1.65) (layer F.SilkS) (width 0.12))
    (fp_line (start 2.281 -1.65) (end 2.281 -0.84) (layer F.SilkS) (width 0.12))
    (fp_line (start 2.241 0.84) (end 2.241 1.68) (layer F.SilkS) (width 0.12))
    (fp_line (start 2.241 -1.68) (end 2.241 -0.84) (layer F.SilkS) (width 0.12))
    (fp_line (start 2.201 0.84) (end 2.201 1.708) (layer F.SilkS) (width 0.12))
    (fp_line (start 2.201 -1.708) (end 2.201 -0.84) (layer F.SilkS) (width 0.12))
    (fp_line (start 2.161 0.84) (end 2.161 1.735) (layer F.SilkS) (width 0.12))
    (fp_line (start 2.161 -1.735) (end 2.161 -0.84) (layer F.SilkS) (width 0.12))
    (fp_line (start 2.121 0.84) (end 2.121 1.76) (layer F.SilkS) (width 0.12))
    (fp_line (start 2.121 -1.76) (end 2.121 -0.84) (layer F.SilkS) (width 0.12))
    (fp_line (start 2.081 0.84) (end 2.081 1.785) (layer F.SilkS) (width 0.12))
    (fp_line (start 2.081 -1.785) (end 2.081 -0.84) (layer F.SilkS) (width 0.12))
    (fp_line (start 2.041 0.84) (end 2.041 1.808) (layer F.SilkS) (width 0.12))
    (fp_line (start 2.041 -1.808) (end 2.041 -0.84) (layer F.SilkS) (width 0.12))
    (fp_line (start 2.001 0.84) (end 2.001 1.83) (layer F.SilkS) (width 0.12))
    (fp_line (start 2.001 -1.83) (end 2.001 -0.84) (layer F.SilkS) (width 0.12))
    (fp_line (start 1.961 0.84) (end 1.961 1.851) (layer F.SilkS) (width 0.12))
    (fp_line (start 1.961 -1.851) (end 1.961 -0.84) (layer F.SilkS) (width 0.12))
    (fp_line (start 1.921 0.84) (end 1.921 1.87) (layer F.SilkS) (width 0.12))
    (fp_line (start 1.921 -1.87) (end 1.921 -0.84) (layer F.SilkS) (width 0.12))
    (fp_line (start 1.881 0.84) (end 1.881 1.889) (layer F.SilkS) (width 0.12))
    (fp_line (start 1.881 -1.889) (end 1.881 -0.84) (layer F.SilkS) (width 0.12))
    (fp_line (start 1.841 0.84) (end 1.841 1.907) (layer F.SilkS) (width 0.12))
    (fp_line (start 1.841 -1.907) (end 1.841 -0.84) (layer F.SilkS) (width 0.12))
    (fp_line (start 1.801 0.84) (end 1.801 1.924) (layer F.SilkS) (width 0.12))
    (fp_line (start 1.801 -1.924) (end 1.801 -0.84) (layer F.SilkS) (width 0.12))
    (fp_line (start 1.761 0.84) (end 1.761 1.94) (layer F.SilkS) (width 0.12))
    (fp_line (start 1.761 -1.94) (end 1.761 -0.84) (layer F.SilkS) (width 0.12))
    (fp_line (start 1.721 0.84) (end 1.721 1.954) (layer F.SilkS) (width 0.12))
    (fp_line (start 1.721 -1.954) (end 1.721 -0.84) (layer F.SilkS) (width 0.12))
    (fp_line (start 1.68 0.84) (end 1.68 1.968) (layer F.SilkS) (width 0.12))
    (fp_line (start 1.68 -1.968) (end 1.68 -0.84) (layer F.SilkS) (width 0.12))
    (fp_line (start 1.64 0.84) (end 1.64 1.982) (layer F.SilkS) (width 0.12))
    (fp_line (start 1.64 -1.982) (end 1.64 -0.84) (layer F.SilkS) (width 0.12))
    (fp_line (start 1.6 0.84) (end 1.6 1.994) (layer F.SilkS) (width 0.12))
    (fp_line (start 1.6 -1.994) (end 1.6 -0.84) (layer F.SilkS) (width 0.12))
    (fp_line (start 1.56 0.84) (end 1.56 2.005) (layer F.SilkS) (width 0.12))
    (fp_line (start 1.56 -2.005) (end 1.56 -0.84) (layer F.SilkS) (width 0.12))
    (fp_line (start 1.52 0.84) (end 1.52 2.016) (layer F.SilkS) (width 0.12))
    (fp_line (start 1.52 -2.016) (end 1.52 -0.84) (layer F.SilkS) (width 0.12))
    (fp_line (start 1.48 0.84) (end 1.48 2.025) (layer F.SilkS) (width 0.12))
    (fp_line (start 1.48 -2.025) (end 1.48 -0.84) (layer F.SilkS) (width 0.12))
    (fp_line (start 1.44 0.84) (end 1.44 2.034) (layer F.SilkS) (width 0.12))
    (fp_line (start 1.44 -2.034) (end 1.44 -0.84) (layer F.SilkS) (width 0.12))
    (fp_line (start 1.4 0.84) (end 1.4 2.042) (layer F.SilkS) (width 0.12))
    (fp_line (start 1.4 -2.042) (end 1.4 -0.84) (layer F.SilkS) (width 0.12))
    (fp_line (start 1.36 0.84) (end 1.36 2.05) (layer F.SilkS) (width 0.12))
    (fp_line (start 1.36 -2.05) (end 1.36 -0.84) (layer F.SilkS) (width 0.12))
    (fp_line (start 1.32 0.84) (end 1.32 2.056) (layer F.SilkS) (width 0.12))
    (fp_line (start 1.32 -2.056) (end 1.32 -0.84) (layer F.SilkS) (width 0.12))
    (fp_line (start 1.28 0.84) (end 1.28 2.062) (layer F.SilkS) (width 0.12))
    (fp_line (start 1.28 -2.062) (end 1.28 -0.84) (layer F.SilkS) (width 0.12))
    (fp_line (start 1.24 0.84) (end 1.24 2.067) (layer F.SilkS) (width 0.12))
    (fp_line (start 1.24 -2.067) (end 1.24 -0.84) (layer F.SilkS) (width 0.12))
    (fp_line (start 1.2 0.84) (end 1.2 2.071) (layer F.SilkS) (width 0.12))
    (fp_line (start 1.2 -2.071) (end 1.2 -0.84) (layer F.SilkS) (width 0.12))
    (fp_line (start 1.16 -2.074) (end 1.16 2.074) (layer F.SilkS) (width 0.12))
    (fp_line (start 1.12 -2.077) (end 1.12 2.077) (layer F.SilkS) (width 0.12))
    (fp_line (start 1.08 -2.079) (end 1.08 2.079) (layer F.SilkS) (width 0.12))
    (fp_line (start 1.04 -2.08) (end 1.04 2.08) (layer F.SilkS) (width 0.12))
    (fp_line (start 1 -2.08) (end 1 2.08) (layer F.SilkS) (width 0.12))
    (fp_line (start -0.502554 -1.0675) (end -0.502554 -0.6675) (layer F.Fab) (width 0.1))
    (fp_line (start -0.702554 -0.8675) (end -0.302554 -0.8675) (layer F.Fab) (width 0.1))
    (fp_circle (center 1 0) (end 3.25 0) (layer F.CrtYd) (width 0.05))
    (fp_circle (center 1 0) (end 3.12 0) (layer F.SilkS) (width 0.12))
    (fp_circle (center 1 0) (end 3 0) (layer F.Fab) (width 0.1))
    (pad 2 thru_hole circle (at 2 0 270) (size 1.2 1.2) (drill 0.6) (layers *.Cu *.Mask)
      (net 1 GND))
    (pad 1 thru_hole rect (at 0 0 270) (size 1.2 1.2) (drill 0.6) (layers *.Cu *.Mask)
      (net 2 +3V3))
    (model ${KISYS3DMOD}/Capacitor_THT.3dshapes/CP_Radial_D4.0mm_P2.00mm.wrl
      (at (xyz 0 0 0))
      (scale (xyz 1 1 1))
      (rotate (xyz 0 0 0))
    )
  )

  (module Capacitor_THT:CP_Radial_D4.0mm_P2.00mm (layer F.Cu) (tedit 5AE50EF0) (tstamp 5FAB0126)
    (at 142.24 125.73 90)
    (descr "CP, Radial series, Radial, pin pitch=2.00mm, , diameter=4mm, Electrolytic Capacitor")
    (tags "CP Radial series Radial pin pitch 2.00mm  diameter 4mm Electrolytic Capacitor")
    (path /5FA1AFBD)
    (fp_text reference C1 (at 1 -3.25 90) (layer F.SilkS)
      (effects (font (size 1 1) (thickness 0.15)))
    )
    (fp_text value 10uF (at 1 3.25 90) (layer F.Fab)
      (effects (font (size 1 1) (thickness 0.15)))
    )
    (fp_text user %R (at 1 0 90) (layer F.Fab)
      (effects (font (size 0.8 0.8) (thickness 0.12)))
    )
    (fp_line (start -1.069801 -1.395) (end -1.069801 -0.995) (layer F.SilkS) (width 0.12))
    (fp_line (start -1.269801 -1.195) (end -0.869801 -1.195) (layer F.SilkS) (width 0.12))
    (fp_line (start 3.081 -0.37) (end 3.081 0.37) (layer F.SilkS) (width 0.12))
    (fp_line (start 3.041 -0.537) (end 3.041 0.537) (layer F.SilkS) (width 0.12))
    (fp_line (start 3.001 -0.664) (end 3.001 0.664) (layer F.SilkS) (width 0.12))
    (fp_line (start 2.961 -0.768) (end 2.961 0.768) (layer F.SilkS) (width 0.12))
    (fp_line (start 2.921 -0.859) (end 2.921 0.859) (layer F.SilkS) (width 0.12))
    (fp_line (start 2.881 -0.94) (end 2.881 0.94) (layer F.SilkS) (width 0.12))
    (fp_line (start 2.841 -1.013) (end 2.841 1.013) (layer F.SilkS) (width 0.12))
    (fp_line (start 2.801 0.84) (end 2.801 1.08) (layer F.SilkS) (width 0.12))
    (fp_line (start 2.801 -1.08) (end 2.801 -0.84) (layer F.SilkS) (width 0.12))
    (fp_line (start 2.761 0.84) (end 2.761 1.142) (layer F.SilkS) (width 0.12))
    (fp_line (start 2.761 -1.142) (end 2.761 -0.84) (layer F.SilkS) (width 0.12))
    (fp_line (start 2.721 0.84) (end 2.721 1.2) (layer F.SilkS) (width 0.12))
    (fp_line (start 2.721 -1.2) (end 2.721 -0.84) (layer F.SilkS) (width 0.12))
    (fp_line (start 2.681 0.84) (end 2.681 1.254) (layer F.SilkS) (width 0.12))
    (fp_line (start 2.681 -1.254) (end 2.681 -0.84) (layer F.SilkS) (width 0.12))
    (fp_line (start 2.641 0.84) (end 2.641 1.304) (layer F.SilkS) (width 0.12))
    (fp_line (start 2.641 -1.304) (end 2.641 -0.84) (layer F.SilkS) (width 0.12))
    (fp_line (start 2.601 0.84) (end 2.601 1.351) (layer F.SilkS) (width 0.12))
    (fp_line (start 2.601 -1.351) (end 2.601 -0.84) (layer F.SilkS) (width 0.12))
    (fp_line (start 2.561 0.84) (end 2.561 1.396) (layer F.SilkS) (width 0.12))
    (fp_line (start 2.561 -1.396) (end 2.561 -0.84) (layer F.SilkS) (width 0.12))
    (fp_line (start 2.521 0.84) (end 2.521 1.438) (layer F.SilkS) (width 0.12))
    (fp_line (start 2.521 -1.438) (end 2.521 -0.84) (layer F.SilkS) (width 0.12))
    (fp_line (start 2.481 0.84) (end 2.481 1.478) (layer F.SilkS) (width 0.12))
    (fp_line (start 2.481 -1.478) (end 2.481 -0.84) (layer F.SilkS) (width 0.12))
    (fp_line (start 2.441 0.84) (end 2.441 1.516) (layer F.SilkS) (width 0.12))
    (fp_line (start 2.441 -1.516) (end 2.441 -0.84) (layer F.SilkS) (width 0.12))
    (fp_line (start 2.401 0.84) (end 2.401 1.552) (layer F.SilkS) (width 0.12))
    (fp_line (start 2.401 -1.552) (end 2.401 -0.84) (layer F.SilkS) (width 0.12))
    (fp_line (start 2.361 0.84) (end 2.361 1.587) (layer F.SilkS) (width 0.12))
    (fp_line (start 2.361 -1.587) (end 2.361 -0.84) (layer F.SilkS) (width 0.12))
    (fp_line (start 2.321 0.84) (end 2.321 1.619) (layer F.SilkS) (width 0.12))
    (fp_line (start 2.321 -1.619) (end 2.321 -0.84) (layer F.SilkS) (width 0.12))
    (fp_line (start 2.281 0.84) (end 2.281 1.65) (layer F.SilkS) (width 0.12))
    (fp_line (start 2.281 -1.65) (end 2.281 -0.84) (layer F.SilkS) (width 0.12))
    (fp_line (start 2.241 0.84) (end 2.241 1.68) (layer F.SilkS) (width 0.12))
    (fp_line (start 2.241 -1.68) (end 2.241 -0.84) (layer F.SilkS) (width 0.12))
    (fp_line (start 2.201 0.84) (end 2.201 1.708) (layer F.SilkS) (width 0.12))
    (fp_line (start 2.201 -1.708) (end 2.201 -0.84) (layer F.SilkS) (width 0.12))
    (fp_line (start 2.161 0.84) (end 2.161 1.735) (layer F.SilkS) (width 0.12))
    (fp_line (start 2.161 -1.735) (end 2.161 -0.84) (layer F.SilkS) (width 0.12))
    (fp_line (start 2.121 0.84) (end 2.121 1.76) (layer F.SilkS) (width 0.12))
    (fp_line (start 2.121 -1.76) (end 2.121 -0.84) (layer F.SilkS) (width 0.12))
    (fp_line (start 2.081 0.84) (end 2.081 1.785) (layer F.SilkS) (width 0.12))
    (fp_line (start 2.081 -1.785) (end 2.081 -0.84) (layer F.SilkS) (width 0.12))
    (fp_line (start 2.041 0.84) (end 2.041 1.808) (layer F.SilkS) (width 0.12))
    (fp_line (start 2.041 -1.808) (end 2.041 -0.84) (layer F.SilkS) (width 0.12))
    (fp_line (start 2.001 0.84) (end 2.001 1.83) (layer F.SilkS) (width 0.12))
    (fp_line (start 2.001 -1.83) (end 2.001 -0.84) (layer F.SilkS) (width 0.12))
    (fp_line (start 1.961 0.84) (end 1.961 1.851) (layer F.SilkS) (width 0.12))
    (fp_line (start 1.961 -1.851) (end 1.961 -0.84) (layer F.SilkS) (width 0.12))
    (fp_line (start 1.921 0.84) (end 1.921 1.87) (layer F.SilkS) (width 0.12))
    (fp_line (start 1.921 -1.87) (end 1.921 -0.84) (layer F.SilkS) (width 0.12))
    (fp_line (start 1.881 0.84) (end 1.881 1.889) (layer F.SilkS) (width 0.12))
    (fp_line (start 1.881 -1.889) (end 1.881 -0.84) (layer F.SilkS) (width 0.12))
    (fp_line (start 1.841 0.84) (end 1.841 1.907) (layer F.SilkS) (width 0.12))
    (fp_line (start 1.841 -1.907) (end 1.841 -0.84) (layer F.SilkS) (width 0.12))
    (fp_line (start 1.801 0.84) (end 1.801 1.924) (layer F.SilkS) (width 0.12))
    (fp_line (start 1.801 -1.924) (end 1.801 -0.84) (layer F.SilkS) (width 0.12))
    (fp_line (start 1.761 0.84) (end 1.761 1.94) (layer F.SilkS) (width 0.12))
    (fp_line (start 1.761 -1.94) (end 1.761 -0.84) (layer F.SilkS) (width 0.12))
    (fp_line (start 1.721 0.84) (end 1.721 1.954) (layer F.SilkS) (width 0.12))
    (fp_line (start 1.721 -1.954) (end 1.721 -0.84) (layer F.SilkS) (width 0.12))
    (fp_line (start 1.68 0.84) (end 1.68 1.968) (layer F.SilkS) (width 0.12))
    (fp_line (start 1.68 -1.968) (end 1.68 -0.84) (layer F.SilkS) (width 0.12))
    (fp_line (start 1.64 0.84) (end 1.64 1.982) (layer F.SilkS) (width 0.12))
    (fp_line (start 1.64 -1.982) (end 1.64 -0.84) (layer F.SilkS) (width 0.12))
    (fp_line (start 1.6 0.84) (end 1.6 1.994) (layer F.SilkS) (width 0.12))
    (fp_line (start 1.6 -1.994) (end 1.6 -0.84) (layer F.SilkS) (width 0.12))
    (fp_line (start 1.56 0.84) (end 1.56 2.005) (layer F.SilkS) (width 0.12))
    (fp_line (start 1.56 -2.005) (end 1.56 -0.84) (layer F.SilkS) (width 0.12))
    (fp_line (start 1.52 0.84) (end 1.52 2.016) (layer F.SilkS) (width 0.12))
    (fp_line (start 1.52 -2.016) (end 1.52 -0.84) (layer F.SilkS) (width 0.12))
    (fp_line (start 1.48 0.84) (end 1.48 2.025) (layer F.SilkS) (width 0.12))
    (fp_line (start 1.48 -2.025) (end 1.48 -0.84) (layer F.SilkS) (width 0.12))
    (fp_line (start 1.44 0.84) (end 1.44 2.034) (layer F.SilkS) (width 0.12))
    (fp_line (start 1.44 -2.034) (end 1.44 -0.84) (layer F.SilkS) (width 0.12))
    (fp_line (start 1.4 0.84) (end 1.4 2.042) (layer F.SilkS) (width 0.12))
    (fp_line (start 1.4 -2.042) (end 1.4 -0.84) (layer F.SilkS) (width 0.12))
    (fp_line (start 1.36 0.84) (end 1.36 2.05) (layer F.SilkS) (width 0.12))
    (fp_line (start 1.36 -2.05) (end 1.36 -0.84) (layer F.SilkS) (width 0.12))
    (fp_line (start 1.32 0.84) (end 1.32 2.056) (layer F.SilkS) (width 0.12))
    (fp_line (start 1.32 -2.056) (end 1.32 -0.84) (layer F.SilkS) (width 0.12))
    (fp_line (start 1.28 0.84) (end 1.28 2.062) (layer F.SilkS) (width 0.12))
    (fp_line (start 1.28 -2.062) (end 1.28 -0.84) (layer F.SilkS) (width 0.12))
    (fp_line (start 1.24 0.84) (end 1.24 2.067) (layer F.SilkS) (width 0.12))
    (fp_line (start 1.24 -2.067) (end 1.24 -0.84) (layer F.SilkS) (width 0.12))
    (fp_line (start 1.2 0.84) (end 1.2 2.071) (layer F.SilkS) (width 0.12))
    (fp_line (start 1.2 -2.071) (end 1.2 -0.84) (layer F.SilkS) (width 0.12))
    (fp_line (start 1.16 -2.074) (end 1.16 2.074) (layer F.SilkS) (width 0.12))
    (fp_line (start 1.12 -2.077) (end 1.12 2.077) (layer F.SilkS) (width 0.12))
    (fp_line (start 1.08 -2.079) (end 1.08 2.079) (layer F.SilkS) (width 0.12))
    (fp_line (start 1.04 -2.08) (end 1.04 2.08) (layer F.SilkS) (width 0.12))
    (fp_line (start 1 -2.08) (end 1 2.08) (layer F.SilkS) (width 0.12))
    (fp_line (start -0.502554 -1.0675) (end -0.502554 -0.6675) (layer F.Fab) (width 0.1))
    (fp_line (start -0.702554 -0.8675) (end -0.302554 -0.8675) (layer F.Fab) (width 0.1))
    (fp_circle (center 1 0) (end 3.25 0) (layer F.CrtYd) (width 0.05))
    (fp_circle (center 1 0) (end 3.12 0) (layer F.SilkS) (width 0.12))
    (fp_circle (center 1 0) (end 3 0) (layer F.Fab) (width 0.1))
    (pad 2 thru_hole circle (at 2 0 90) (size 1.2 1.2) (drill 0.6) (layers *.Cu *.Mask)
      (net 1 GND))
    (pad 1 thru_hole rect (at 0 0 90) (size 1.2 1.2) (drill 0.6) (layers *.Cu *.Mask)
      (net 3 +5V))
    (model ${KISYS3DMOD}/Capacitor_THT.3dshapes/CP_Radial_D4.0mm_P2.00mm.wrl
      (at (xyz 0 0 0))
      (scale (xyz 1 1 1))
      (rotate (xyz 0 0 0))
    )
  )

  (module Connector_PinHeader_2.54mm:PinHeader_1x04_P2.54mm_Vertical (layer F.Cu) (tedit 59FED5CC) (tstamp 5FAAC076)
    (at 187.96 83.82)
    (descr "Through hole straight pin header, 1x04, 2.54mm pitch, single row")
    (tags "Through hole pin header THT 1x04 2.54mm single row")
    (path /5FAD90E7)
    (fp_text reference J8 (at -2.54 3.81 90) (layer F.SilkS)
      (effects (font (size 1 1) (thickness 0.15)))
    )
    (fp_text value MISC2_I2C (at 2.54 3.81 90) (layer F.SilkS)
      (effects (font (size 1 1) (thickness 0.15)))
    )
    (fp_text user %R (at 0 3.81 90) (layer F.Fab)
      (effects (font (size 1 1) (thickness 0.15)))
    )
    (fp_line (start 1.8 -1.8) (end -1.8 -1.8) (layer F.CrtYd) (width 0.05))
    (fp_line (start 1.8 9.4) (end 1.8 -1.8) (layer F.CrtYd) (width 0.05))
    (fp_line (start -1.8 9.4) (end 1.8 9.4) (layer F.CrtYd) (width 0.05))
    (fp_line (start -1.8 -1.8) (end -1.8 9.4) (layer F.CrtYd) (width 0.05))
    (fp_line (start -1.33 -1.33) (end 0 -1.33) (layer F.SilkS) (width 0.12))
    (fp_line (start -1.33 0) (end -1.33 -1.33) (layer F.SilkS) (width 0.12))
    (fp_line (start -1.33 1.27) (end 1.33 1.27) (layer F.SilkS) (width 0.12))
    (fp_line (start 1.33 1.27) (end 1.33 8.95) (layer F.SilkS) (width 0.12))
    (fp_line (start -1.33 1.27) (end -1.33 8.95) (layer F.SilkS) (width 0.12))
    (fp_line (start -1.33 8.95) (end 1.33 8.95) (layer F.SilkS) (width 0.12))
    (fp_line (start -1.27 -0.635) (end -0.635 -1.27) (layer F.Fab) (width 0.1))
    (fp_line (start -1.27 8.89) (end -1.27 -0.635) (layer F.Fab) (width 0.1))
    (fp_line (start 1.27 8.89) (end -1.27 8.89) (layer F.Fab) (width 0.1))
    (fp_line (start 1.27 -1.27) (end 1.27 8.89) (layer F.Fab) (width 0.1))
    (fp_line (start -0.635 -1.27) (end 1.27 -1.27) (layer F.Fab) (width 0.1))
    (pad 4 thru_hole oval (at 0 7.62) (size 1.7 1.7) (drill 1) (layers *.Cu *.Mask)
      (net 4 SCL))
    (pad 3 thru_hole oval (at 0 5.08) (size 1.7 1.7) (drill 1) (layers *.Cu *.Mask)
      (net 5 SDA))
    (pad 2 thru_hole oval (at 0 2.54) (size 1.7 1.7) (drill 1) (layers *.Cu *.Mask)
      (net 1 GND))
    (pad 1 thru_hole rect (at 0 0) (size 1.7 1.7) (drill 1) (layers *.Cu *.Mask)
      (net 2 +3V3))
    (model ${KISYS3DMOD}/Connector_PinHeader_2.54mm.3dshapes/PinHeader_1x04_P2.54mm_Vertical.wrl
      (at (xyz 0 0 0))
      (scale (xyz 1 1 1))
      (rotate (xyz 0 0 0))
    )
  )

  (module Personal_Footprint_Library:XL4015_BOARD (layer F.Cu) (tedit 5FA1E023) (tstamp 5FAAC12C)
    (at 126.238 99.822 270)
    (path /5F99E8ED)
    (fp_text reference U2 (at 0 6 90) (layer F.SilkS)
      (effects (font (size 1 1) (thickness 0.15)))
    )
    (fp_text value XL4015_BOARD (at 0 -3 90) (layer F.SilkS)
      (effects (font (size 1 1) (thickness 0.15)))
    )
    (fp_line (start 34 10) (end 34 1) (layer F.SilkS) (width 0.12))
    (fp_line (start 34 1) (end 28 1) (layer F.SilkS) (width 0.12))
    (fp_line (start 28 10) (end 34 10) (layer F.SilkS) (width 0.12))
    (fp_line (start -28 -9) (end -35 -9) (layer F.SilkS) (width 0.12))
    (fp_line (start -35 -9) (end -35 -1) (layer F.SilkS) (width 0.12))
    (fp_line (start -35 -1) (end -28 -1) (layer F.SilkS) (width 0.12))
    (fp_line (start -28 13) (end 28 13) (layer F.SilkS) (width 0.12))
    (fp_line (start 28 13) (end 28 -13) (layer F.SilkS) (width 0.12))
    (fp_line (start -28 -13) (end -28 13) (layer F.SilkS) (width 0.12))
    (fp_line (start -28 -13) (end 28 -13) (layer F.SilkS) (width 0.12))
    (pad 2 thru_hole circle (at -31.5 -3 270) (size 2 2) (drill 1.2) (layers *.Cu *.Mask)
      (net 1 GND))
    (pad "" thru_hole circle (at -26.25 -11.25 270) (size 3 3) (drill 2.4) (layers *.Cu *.Mask))
    (pad "" thru_hole circle (at -26.25 11.25 270) (size 3 3) (drill 2.4) (layers *.Cu *.Mask))
    (pad "" thru_hole circle (at 26.25 -11.25 270) (size 3 3) (drill 2.4) (layers *.Cu *.Mask))
    (pad "" thru_hole circle (at 26.25 11.25 270) (size 3 3) (drill 2.4) (layers *.Cu *.Mask))
    (pad 1 thru_hole circle (at -31.5 -7 270) (size 2 2) (drill 1.2) (layers *.Cu *.Mask))
    (pad 3 thru_hole circle (at 31 3 270) (size 2 2) (drill 1.2) (layers *.Cu *.Mask)
      (net 3 +5V))
    (pad 4 thru_hole circle (at 31 8 270) (size 2 2) (drill 1.2) (layers *.Cu *.Mask)
      (net 1 GND))
  )

  (module Personal_Footprint_Library:AZ-Delivery_ESP32 (layer F.Cu) (tedit 5FAA9E3C) (tstamp 5FAAC116)
    (at 163.83 86.36)
    (path /5F9C381E)
    (fp_text reference U1 (at 0 10.16) (layer F.SilkS)
      (effects (font (size 1 1) (thickness 0.15)))
    )
    (fp_text value ESP32-WROOM-32D (at 0 6.35) (layer F.SilkS)
      (effects (font (size 1 1) (thickness 0.15)))
    )
    (fp_line (start 20.32 -21.59) (end 20.32 -16.51) (layer F.CrtYd) (width 0.12))
    (fp_line (start -22.86 -21.59) (end -22.86 -16.51) (layer F.CrtYd) (width 0.12))
    (fp_line (start -22.86 35.56) (end 20.32 35.56) (layer F.CrtYd) (width 0.12))
    (fp_line (start 20.32 35.56) (end 20.32 -13.97) (layer F.CrtYd) (width 0.12))
    (fp_line (start 20.32 -13.97) (end 20.32 -16.51) (layer F.CrtYd) (width 0.12))
    (fp_line (start 20.32 -21.59) (end -22.86 -21.59) (layer F.CrtYd) (width 0.12))
    (fp_line (start -22.86 -16.51) (end -22.86 35.56) (layer F.CrtYd) (width 0.12))
    (fp_line (start -22.86 35.56) (end 20.32 35.56) (layer F.SilkS) (width 0.12))
    (fp_line (start -22.86 -13.97) (end 20.32 -13.97) (layer F.SilkS) (width 0.12))
    (fp_line (start 20.32 -13.97) (end 20.32 35.56) (layer F.SilkS) (width 0.12))
    (fp_line (start -22.86 35.56) (end -22.86 -13.97) (layer F.SilkS) (width 0.12))
    (fp_text user 3V3 (at 13.97 33.02) (layer F.SilkS)
      (effects (font (size 1 1) (thickness 0.15)) (justify left))
    )
    (fp_text user EN (at 13.97 30.48) (layer F.SilkS)
      (effects (font (size 1 1) (thickness 0.15)) (justify left))
    )
    (fp_text user SP (at 13.97 27.94) (layer F.SilkS)
      (effects (font (size 1 1) (thickness 0.15)) (justify left))
    )
    (fp_text user SN (at 13.97 25.4) (layer F.SilkS)
      (effects (font (size 1 1) (thickness 0.15)) (justify left))
    )
    (fp_text user GPIO34 (at 13.97 22.86) (layer F.SilkS)
      (effects (font (size 1 1) (thickness 0.15)) (justify left))
    )
    (fp_text user GPIO35 (at 13.97 20.32) (layer F.SilkS)
      (effects (font (size 1 1) (thickness 0.15)) (justify left))
    )
    (fp_text user GPIO32 (at 13.97 17.78) (layer F.SilkS)
      (effects (font (size 1 1) (thickness 0.15)) (justify left))
    )
    (fp_text user GPIO33 (at 13.97 15.24) (layer F.SilkS)
      (effects (font (size 1 1) (thickness 0.15)) (justify left))
    )
    (fp_text user GPIO25 (at 13.97 12.7) (layer F.SilkS)
      (effects (font (size 1 1) (thickness 0.15)) (justify left))
    )
    (fp_text user GPIO26 (at 13.97 10.16) (layer F.SilkS)
      (effects (font (size 1 1) (thickness 0.15)) (justify left))
    )
    (fp_text user GPIO27 (at 13.97 7.62) (layer F.SilkS)
      (effects (font (size 1 1) (thickness 0.15)) (justify left))
    )
    (fp_text user GPIO14 (at 13.97 5.08) (layer F.SilkS)
      (effects (font (size 1 1) (thickness 0.15)) (justify left))
    )
    (fp_text user GPIO12 (at 13.97 2.54) (layer F.SilkS)
      (effects (font (size 1 1) (thickness 0.15)) (justify left))
    )
    (fp_text user GND (at 13.97 0) (layer F.SilkS)
      (effects (font (size 1 1) (thickness 0.15)) (justify left))
    )
    (fp_text user GPIO13 (at 13.97 -2.54) (layer F.SilkS)
      (effects (font (size 1 1) (thickness 0.15)) (justify left))
    )
    (fp_text user GPIO9 (at 13.97 -5.08) (layer F.SilkS)
      (effects (font (size 1 1) (thickness 0.15)) (justify left))
    )
    (fp_text user GPIO10 (at 13.97 -7.62) (layer F.SilkS)
      (effects (font (size 1 1) (thickness 0.15)) (justify left))
    )
    (fp_text user CMD (at 13.97 -10.16) (layer F.SilkS)
      (effects (font (size 1 1) (thickness 0.15)) (justify left))
    )
    (fp_text user 5V (at 13.97 -12.7) (layer F.SilkS)
      (effects (font (size 1 1) (thickness 0.15)) (justify left))
    )
    (fp_text user GND (at -13.97 33.02) (layer F.SilkS)
      (effects (font (size 1 1) (thickness 0.15)) (justify right))
    )
    (fp_text user GPIO23 (at -13.97 30.48) (layer F.SilkS)
      (effects (font (size 1 1) (thickness 0.15)) (justify right))
    )
    (fp_text user GPIO22 (at -13.97 27.94) (layer F.SilkS)
      (effects (font (size 1 1) (thickness 0.15)) (justify right))
    )
    (fp_text user GPIO1 (at -13.97 25.4) (layer F.SilkS)
      (effects (font (size 1 1) (thickness 0.15)) (justify right))
    )
    (fp_text user GPIO3 (at -13.97 22.86) (layer F.SilkS)
      (effects (font (size 1 1) (thickness 0.15)) (justify right))
    )
    (fp_text user GPIO21 (at -13.97 20.32) (layer F.SilkS)
      (effects (font (size 1 1) (thickness 0.15)) (justify right))
    )
    (fp_text user GND (at -13.97 17.78) (layer F.SilkS)
      (effects (font (size 1 1) (thickness 0.15)) (justify right))
    )
    (fp_text user GPIO19 (at -13.97 15.24) (layer F.SilkS)
      (effects (font (size 1 1) (thickness 0.15)) (justify right))
    )
    (fp_text user GPIO18 (at -13.97 12.7) (layer F.SilkS)
      (effects (font (size 1 1) (thickness 0.15)) (justify right))
    )
    (fp_text user GPIO5 (at -13.97 10.16) (layer F.SilkS)
      (effects (font (size 1 1) (thickness 0.15)) (justify right))
    )
    (fp_text user GPIO17 (at -13.97 7.62) (layer F.SilkS)
      (effects (font (size 1 1) (thickness 0.15)) (justify right))
    )
    (fp_text user GPIO16 (at -13.97 5.08) (layer F.SilkS)
      (effects (font (size 1 1) (thickness 0.15)) (justify right))
    )
    (fp_text user GPIO4 (at -13.97 2.54) (layer F.SilkS)
      (effects (font (size 1 1) (thickness 0.15)) (justify right))
    )
    (fp_text user GPIO0 (at -13.97 0) (layer F.SilkS)
      (effects (font (size 1 1) (thickness 0.15)) (justify right))
    )
    (fp_text user GPIO2 (at -13.97 -2.54) (layer F.SilkS)
      (effects (font (size 1 1) (thickness 0.15)) (justify right))
    )
    (fp_text user GPIO15 (at -13.97 -5.08) (layer F.SilkS)
      (effects (font (size 1 1) (thickness 0.15)) (justify right))
    )
    (fp_text user GPIO8 (at -13.97 -7.62) (layer F.SilkS)
      (effects (font (size 1 1) (thickness 0.15)) (justify right))
    )
    (fp_text user GPIO7 (at -13.97 -10.16) (layer F.SilkS)
      (effects (font (size 1 1) (thickness 0.15)) (justify right))
    )
    (fp_text user GPIO6 (at -13.97 -12.7) (layer F.SilkS)
      (effects (font (size 1 1) (thickness 0.15)) (justify right))
    )
    (pad 2 thru_hole circle (at 12.7 -12.7) (size 1.25 1.25) (drill 1) (layers *.Cu *.Mask)
      (net 3 +5V))
    (pad 19 thru_hole circle (at 12.7 -10.16) (size 1.25 1.25) (drill 1) (layers *.Cu *.Mask))
    (pad 18 thru_hole circle (at 12.7 -7.62) (size 1.25 1.25) (drill 1) (layers *.Cu *.Mask))
    (pad 17 thru_hole circle (at 12.7 -5.08) (size 1.25 1.25) (drill 1) (layers *.Cu *.Mask))
    (pad 16 thru_hole circle (at 12.7 -2.54) (size 1.25 1.25) (drill 1) (layers *.Cu *.Mask))
    (pad 1 thru_hole circle (at 12.7 0) (size 1.25 1.25) (drill 1) (layers *.Cu *.Mask)
      (net 1 GND))
    (pad 14 thru_hole circle (at 12.7 2.54) (size 1.25 1.25) (drill 1) (layers *.Cu *.Mask))
    (pad 13 thru_hole circle (at 12.7 5.08) (size 1.25 1.25) (drill 1) (layers *.Cu *.Mask))
    (pad 12 thru_hole circle (at 12.7 7.62) (size 1.25 1.25) (drill 1) (layers *.Cu *.Mask)
      (net 16 ERROR_LED))
    (pad 11 thru_hole circle (at 12.7 10.16) (size 1.25 1.25) (drill 1) (layers *.Cu *.Mask))
    (pad 10 thru_hole circle (at 12.7 12.7) (size 1.25 1.25) (drill 1) (layers *.Cu *.Mask))
    (pad 9 thru_hole circle (at 12.7 15.24) (size 1.25 1.25) (drill 1) (layers *.Cu *.Mask))
    (pad 8 thru_hole circle (at 12.7 17.78) (size 1.25 1.25) (drill 1) (layers *.Cu *.Mask)
      (net 10 SPI_DC))
    (pad 7 thru_hole circle (at 12.7 20.32) (size 1.25 1.25) (drill 1) (layers *.Cu *.Mask)
      (net 11 SPI_RESET))
    (pad 6 thru_hole circle (at 12.7 22.86) (size 1.25 1.25) (drill 1) (layers *.Cu *.Mask)
      (net 12 SPEED_POT))
    (pad 5 thru_hole circle (at 12.7 25.4) (size 1.25 1.25) (drill 1) (layers *.Cu *.Mask))
    (pad 4 thru_hole circle (at 12.7 27.94) (size 1.25 1.25) (drill 1) (layers *.Cu *.Mask))
    (pad 3 thru_hole circle (at 12.7 30.48) (size 1.25 1.25) (drill 1) (layers *.Cu *.Mask))
    (pad "" thru_hole circle (at 12.7 33.02) (size 1.25 1.25) (drill 1) (layers *.Cu *.Mask))
    (pad 20 thru_hole circle (at -12.7 -12.7) (size 1.25 1.25) (drill 1) (layers *.Cu *.Mask))
    (pad 21 thru_hole circle (at -12.7 -10.16) (size 1.25 1.25) (drill 1) (layers *.Cu *.Mask))
    (pad 22 thru_hole circle (at -12.7 -7.62) (size 1.25 1.25) (drill 1) (layers *.Cu *.Mask))
    (pad 23 thru_hole circle (at -12.7 -5.08) (size 1.25 1.25) (drill 1) (layers *.Cu *.Mask)
      (net 14 MOTOR_ENABLE))
    (pad 24 thru_hole circle (at -12.7 -2.54) (size 1.25 1.25) (drill 1) (layers *.Cu *.Mask))
    (pad 25 thru_hole circle (at -12.7 0) (size 1.25 1.25) (drill 1) (layers *.Cu *.Mask))
    (pad 26 thru_hole circle (at -12.7 2.54) (size 1.25 1.25) (drill 1) (layers *.Cu *.Mask)
      (net 15 POWER_LED))
    (pad 27 thru_hole circle (at -12.7 5.08) (size 1.25 1.25) (drill 1) (layers *.Cu *.Mask)
      (net 6 STEP))
    (pad 28 thru_hole circle (at -12.7 7.62) (size 1.25 1.25) (drill 1) (layers *.Cu *.Mask)
      (net 7 DIR))
    (pad 29 thru_hole circle (at -12.7 10.16) (size 1.25 1.25) (drill 1) (layers *.Cu *.Mask)
      (net 9 SPI_SS))
    (pad 30 thru_hole circle (at -12.7 12.7) (size 1.25 1.25) (drill 1) (layers *.Cu *.Mask)
      (net 8 SPI_SCK))
    (pad 31 thru_hole circle (at -12.7 15.24) (size 1.25 1.25) (drill 1) (layers *.Cu *.Mask))
    (pad 1 thru_hole circle (at -12.7 17.78) (size 1.25 1.25) (drill 1) (layers *.Cu *.Mask)
      (net 1 GND))
    (pad 33 thru_hole circle (at -12.7 20.32) (size 1.25 1.25) (drill 1) (layers *.Cu *.Mask)
      (net 5 SDA))
    (pad 34 thru_hole circle (at -12.7 22.86) (size 1.25 1.25) (drill 1) (layers *.Cu *.Mask))
    (pad 35 thru_hole circle (at -12.7 25.4) (size 1.25 1.25) (drill 1) (layers *.Cu *.Mask))
    (pad 36 thru_hole circle (at -12.7 27.94) (size 1.25 1.25) (drill 1) (layers *.Cu *.Mask)
      (net 4 SCL))
    (pad 37 thru_hole circle (at -12.7 30.48) (size 1.25 1.25) (drill 1) (layers *.Cu *.Mask)
      (net 13 SPI_MOSI))
    (pad 1 thru_hole circle (at -12.7 33.02) (size 1.25 1.25) (drill 1) (layers *.Cu *.Mask)
      (net 1 GND))
  )

  (module Connector_PinHeader_2.54mm:PinHeader_1x03_P2.54mm_Vertical (layer F.Cu) (tedit 59FED5CC) (tstamp 5FAB15DC)
    (at 129.54 130.81 90)
    (descr "Through hole straight pin header, 1x03, 2.54mm pitch, single row")
    (tags "Through hole pin header THT 1x03 2.54mm single row")
    (path /5FAE787F)
    (fp_text reference J9 (at 0 7.874 180) (layer F.SilkS)
      (effects (font (size 1 1) (thickness 0.15)))
    )
    (fp_text value MOTOR_EN_SPDT (at 2.286 2.54 180) (layer F.SilkS)
      (effects (font (size 0.7 0.7) (thickness 0.15)))
    )
    (fp_text user %R (at 0 2.54) (layer F.Fab)
      (effects (font (size 1 1) (thickness 0.15)))
    )
    (fp_line (start 1.8 -1.8) (end -1.8 -1.8) (layer F.CrtYd) (width 0.05))
    (fp_line (start 1.8 6.85) (end 1.8 -1.8) (layer F.CrtYd) (width 0.05))
    (fp_line (start -1.8 6.85) (end 1.8 6.85) (layer F.CrtYd) (width 0.05))
    (fp_line (start -1.8 -1.8) (end -1.8 6.85) (layer F.CrtYd) (width 0.05))
    (fp_line (start -1.33 -1.33) (end 0 -1.33) (layer F.SilkS) (width 0.12))
    (fp_line (start -1.33 0) (end -1.33 -1.33) (layer F.SilkS) (width 0.12))
    (fp_line (start -1.33 1.27) (end 1.33 1.27) (layer F.SilkS) (width 0.12))
    (fp_line (start 1.33 1.27) (end 1.33 6.41) (layer F.SilkS) (width 0.12))
    (fp_line (start -1.33 1.27) (end -1.33 6.41) (layer F.SilkS) (width 0.12))
    (fp_line (start -1.33 6.41) (end 1.33 6.41) (layer F.SilkS) (width 0.12))
    (fp_line (start -1.27 -0.635) (end -0.635 -1.27) (layer F.Fab) (width 0.1))
    (fp_line (start -1.27 6.35) (end -1.27 -0.635) (layer F.Fab) (width 0.1))
    (fp_line (start 1.27 6.35) (end -1.27 6.35) (layer F.Fab) (width 0.1))
    (fp_line (start 1.27 -1.27) (end 1.27 6.35) (layer F.Fab) (width 0.1))
    (fp_line (start -0.635 -1.27) (end 1.27 -1.27) (layer F.Fab) (width 0.1))
    (pad 3 thru_hole oval (at 0 5.08 90) (size 1.7 1.7) (drill 1) (layers *.Cu *.Mask)
      (net 1 GND))
    (pad 2 thru_hole oval (at 0 2.54 90) (size 1.7 1.7) (drill 1) (layers *.Cu *.Mask)
      (net 14 MOTOR_ENABLE))
    (pad 1 thru_hole rect (at 0 0 90) (size 1.7 1.7) (drill 1) (layers *.Cu *.Mask)
      (net 2 +3V3))
    (model ${KISYS3DMOD}/Connector_PinHeader_2.54mm.3dshapes/PinHeader_1x03_P2.54mm_Vertical.wrl
      (at (xyz 0 0 0))
      (scale (xyz 1 1 1))
      (rotate (xyz 0 0 0))
    )
  )

  (module Connector_PinHeader_2.54mm:PinHeader_1x04_P2.54mm_Vertical (layer F.Cu) (tedit 59FED5CC) (tstamp 5FAB1A23)
    (at 187.96 97.79)
    (descr "Through hole straight pin header, 1x04, 2.54mm pitch, single row")
    (tags "Through hole pin header THT 1x04 2.54mm single row")
    (path /5FAD6C89)
    (fp_text reference J7 (at -2.54 3.81 90) (layer F.SilkS)
      (effects (font (size 1 1) (thickness 0.15)))
    )
    (fp_text value MISC1_I2C (at 2.54 3.81 90) (layer F.SilkS)
      (effects (font (size 1 1) (thickness 0.15)))
    )
    (fp_text user %R (at 0 3.81 90) (layer F.Fab)
      (effects (font (size 1 1) (thickness 0.15)))
    )
    (fp_line (start 1.8 -1.8) (end -1.8 -1.8) (layer F.CrtYd) (width 0.05))
    (fp_line (start 1.8 9.4) (end 1.8 -1.8) (layer F.CrtYd) (width 0.05))
    (fp_line (start -1.8 9.4) (end 1.8 9.4) (layer F.CrtYd) (width 0.05))
    (fp_line (start -1.8 -1.8) (end -1.8 9.4) (layer F.CrtYd) (width 0.05))
    (fp_line (start -1.33 -1.33) (end 0 -1.33) (layer F.SilkS) (width 0.12))
    (fp_line (start -1.33 0) (end -1.33 -1.33) (layer F.SilkS) (width 0.12))
    (fp_line (start -1.33 1.27) (end 1.33 1.27) (layer F.SilkS) (width 0.12))
    (fp_line (start 1.33 1.27) (end 1.33 8.95) (layer F.SilkS) (width 0.12))
    (fp_line (start -1.33 1.27) (end -1.33 8.95) (layer F.SilkS) (width 0.12))
    (fp_line (start -1.33 8.95) (end 1.33 8.95) (layer F.SilkS) (width 0.12))
    (fp_line (start -1.27 -0.635) (end -0.635 -1.27) (layer F.Fab) (width 0.1))
    (fp_line (start -1.27 8.89) (end -1.27 -0.635) (layer F.Fab) (width 0.1))
    (fp_line (start 1.27 8.89) (end -1.27 8.89) (layer F.Fab) (width 0.1))
    (fp_line (start 1.27 -1.27) (end 1.27 8.89) (layer F.Fab) (width 0.1))
    (fp_line (start -0.635 -1.27) (end 1.27 -1.27) (layer F.Fab) (width 0.1))
    (pad 4 thru_hole oval (at 0 7.62) (size 1.7 1.7) (drill 1) (layers *.Cu *.Mask)
      (net 4 SCL))
    (pad 3 thru_hole oval (at 0 5.08) (size 1.7 1.7) (drill 1) (layers *.Cu *.Mask)
      (net 5 SDA))
    (pad 2 thru_hole oval (at 0 2.54) (size 1.7 1.7) (drill 1) (layers *.Cu *.Mask)
      (net 1 GND))
    (pad 1 thru_hole rect (at 0 0) (size 1.7 1.7) (drill 1) (layers *.Cu *.Mask)
      (net 2 +3V3))
    (model ${KISYS3DMOD}/Connector_PinHeader_2.54mm.3dshapes/PinHeader_1x04_P2.54mm_Vertical.wrl
      (at (xyz 0 0 0))
      (scale (xyz 1 1 1))
      (rotate (xyz 0 0 0))
    )
  )

  (module Connector_PinHeader_2.54mm:PinHeader_1x08_P2.54mm_Vertical (layer F.Cu) (tedit 59FED5CC) (tstamp 5FAAC046)
    (at 187.96 111.76)
    (descr "Through hole straight pin header, 1x08, 2.54mm pitch, single row")
    (tags "Through hole pin header THT 1x08 2.54mm single row")
    (path /5FA09003)
    (fp_text reference J6 (at -2.54 8.89 90) (layer F.SilkS)
      (effects (font (size 1 1) (thickness 0.15)))
    )
    (fp_text value SCREEN_SPI (at 2.54 10.16 90) (layer F.SilkS)
      (effects (font (size 1 1) (thickness 0.15)))
    )
    (fp_text user %R (at 0 8.89 90) (layer F.Fab)
      (effects (font (size 1 1) (thickness 0.15)))
    )
    (fp_line (start 1.8 -1.8) (end -1.8 -1.8) (layer F.CrtYd) (width 0.05))
    (fp_line (start 1.8 19.55) (end 1.8 -1.8) (layer F.CrtYd) (width 0.05))
    (fp_line (start -1.8 19.55) (end 1.8 19.55) (layer F.CrtYd) (width 0.05))
    (fp_line (start -1.8 -1.8) (end -1.8 19.55) (layer F.CrtYd) (width 0.05))
    (fp_line (start -1.33 -1.33) (end 0 -1.33) (layer F.SilkS) (width 0.12))
    (fp_line (start -1.33 0) (end -1.33 -1.33) (layer F.SilkS) (width 0.12))
    (fp_line (start -1.33 1.27) (end 1.33 1.27) (layer F.SilkS) (width 0.12))
    (fp_line (start 1.33 1.27) (end 1.33 19.11) (layer F.SilkS) (width 0.12))
    (fp_line (start -1.33 1.27) (end -1.33 19.11) (layer F.SilkS) (width 0.12))
    (fp_line (start -1.33 19.11) (end 1.33 19.11) (layer F.SilkS) (width 0.12))
    (fp_line (start -1.27 -0.635) (end -0.635 -1.27) (layer F.Fab) (width 0.1))
    (fp_line (start -1.27 19.05) (end -1.27 -0.635) (layer F.Fab) (width 0.1))
    (fp_line (start 1.27 19.05) (end -1.27 19.05) (layer F.Fab) (width 0.1))
    (fp_line (start 1.27 -1.27) (end 1.27 19.05) (layer F.Fab) (width 0.1))
    (fp_line (start -0.635 -1.27) (end 1.27 -1.27) (layer F.Fab) (width 0.1))
    (pad 8 thru_hole oval (at 0 17.78) (size 1.7 1.7) (drill 1) (layers *.Cu *.Mask)
      (net 1 GND))
    (pad 7 thru_hole oval (at 0 15.24) (size 1.7 1.7) (drill 1) (layers *.Cu *.Mask)
      (net 2 +3V3))
    (pad 6 thru_hole oval (at 0 12.7) (size 1.7 1.7) (drill 1) (layers *.Cu *.Mask)
      (net 8 SPI_SCK))
    (pad 5 thru_hole oval (at 0 10.16) (size 1.7 1.7) (drill 1) (layers *.Cu *.Mask)
      (net 13 SPI_MOSI))
    (pad 4 thru_hole oval (at 0 7.62) (size 1.7 1.7) (drill 1) (layers *.Cu *.Mask)
      (net 9 SPI_SS))
    (pad 3 thru_hole oval (at 0 5.08) (size 1.7 1.7) (drill 1) (layers *.Cu *.Mask)
      (net 10 SPI_DC))
    (pad 2 thru_hole oval (at 0 2.54) (size 1.7 1.7) (drill 1) (layers *.Cu *.Mask)
      (net 11 SPI_RESET))
    (pad 1 thru_hole rect (at 0 0) (size 1.7 1.7) (drill 1) (layers *.Cu *.Mask)
      (net 2 +3V3))
    (model ${KISYS3DMOD}/Connector_PinHeader_2.54mm.3dshapes/PinHeader_1x08_P2.54mm_Vertical.wrl
      (at (xyz 0 0 0))
      (scale (xyz 1 1 1))
      (rotate (xyz 0 0 0))
    )
  )

  (module Connector_PinHeader_2.54mm:PinHeader_1x02_P2.54mm_Vertical (layer F.Cu) (tedit 59FED5CC) (tstamp 5FAB1648)
    (at 181.61 127)
    (descr "Through hole straight pin header, 1x02, 2.54mm pitch, single row")
    (tags "Through hole pin header THT 1x02 2.54mm single row")
    (path /5FA072AB)
    (fp_text reference J5 (at 0 -2.33) (layer F.SilkS)
      (effects (font (size 1 1) (thickness 0.15)))
    )
    (fp_text value MOTOR_CTL (at 0 5.08) (layer F.SilkS)
      (effects (font (size 1 1) (thickness 0.15)))
    )
    (fp_text user %R (at 0 1.27 90) (layer F.Fab)
      (effects (font (size 1 1) (thickness 0.15)))
    )
    (fp_line (start 1.8 -1.8) (end -1.8 -1.8) (layer F.CrtYd) (width 0.05))
    (fp_line (start 1.8 4.35) (end 1.8 -1.8) (layer F.CrtYd) (width 0.05))
    (fp_line (start -1.8 4.35) (end 1.8 4.35) (layer F.CrtYd) (width 0.05))
    (fp_line (start -1.8 -1.8) (end -1.8 4.35) (layer F.CrtYd) (width 0.05))
    (fp_line (start -1.33 -1.33) (end 0 -1.33) (layer F.SilkS) (width 0.12))
    (fp_line (start -1.33 0) (end -1.33 -1.33) (layer F.SilkS) (width 0.12))
    (fp_line (start -1.33 1.27) (end 1.33 1.27) (layer F.SilkS) (width 0.12))
    (fp_line (start 1.33 1.27) (end 1.33 3.87) (layer F.SilkS) (width 0.12))
    (fp_line (start -1.33 1.27) (end -1.33 3.87) (layer F.SilkS) (width 0.12))
    (fp_line (start -1.33 3.87) (end 1.33 3.87) (layer F.SilkS) (width 0.12))
    (fp_line (start -1.27 -0.635) (end -0.635 -1.27) (layer F.Fab) (width 0.1))
    (fp_line (start -1.27 3.81) (end -1.27 -0.635) (layer F.Fab) (width 0.1))
    (fp_line (start 1.27 3.81) (end -1.27 3.81) (layer F.Fab) (width 0.1))
    (fp_line (start 1.27 -1.27) (end 1.27 3.81) (layer F.Fab) (width 0.1))
    (fp_line (start -0.635 -1.27) (end 1.27 -1.27) (layer F.Fab) (width 0.1))
    (pad 2 thru_hole oval (at 0 2.54) (size 1.7 1.7) (drill 1) (layers *.Cu *.Mask)
      (net 6 STEP))
    (pad 1 thru_hole rect (at 0 0) (size 1.7 1.7) (drill 1) (layers *.Cu *.Mask)
      (net 7 DIR))
    (model ${KISYS3DMOD}/Connector_PinHeader_2.54mm.3dshapes/PinHeader_1x02_P2.54mm_Vertical.wrl
      (at (xyz 0 0 0))
      (scale (xyz 1 1 1))
      (rotate (xyz 0 0 0))
    )
  )

  (module Connector_PinHeader_2.54mm:PinHeader_1x02_P2.54mm_Vertical (layer F.Cu) (tedit 59FED5CC) (tstamp 5FAB1B49)
    (at 163.83 130.81 270)
    (descr "Through hole straight pin header, 1x02, 2.54mm pitch, single row")
    (tags "Through hole pin header THT 1x02 2.54mm single row")
    (path /5F9F4F28)
    (fp_text reference J4 (at 1.27 5.334 180) (layer F.SilkS)
      (effects (font (size 1 1) (thickness 0.15)))
    )
    (fp_text value 3V3_RAIL (at 2.54 1.27 180) (layer F.SilkS)
      (effects (font (size 1 1) (thickness 0.15)))
    )
    (fp_text user %R (at 0 1.27) (layer F.Fab)
      (effects (font (size 1 1) (thickness 0.15)))
    )
    (fp_line (start 1.8 -1.8) (end -1.8 -1.8) (layer F.CrtYd) (width 0.05))
    (fp_line (start 1.8 4.35) (end 1.8 -1.8) (layer F.CrtYd) (width 0.05))
    (fp_line (start -1.8 4.35) (end 1.8 4.35) (layer F.CrtYd) (width 0.05))
    (fp_line (start -1.8 -1.8) (end -1.8 4.35) (layer F.CrtYd) (width 0.05))
    (fp_line (start -1.33 -1.33) (end 0 -1.33) (layer F.SilkS) (width 0.12))
    (fp_line (start -1.33 0) (end -1.33 -1.33) (layer F.SilkS) (width 0.12))
    (fp_line (start -1.33 1.27) (end 1.33 1.27) (layer F.SilkS) (width 0.12))
    (fp_line (start 1.33 1.27) (end 1.33 3.87) (layer F.SilkS) (width 0.12))
    (fp_line (start -1.33 1.27) (end -1.33 3.87) (layer F.SilkS) (width 0.12))
    (fp_line (start -1.33 3.87) (end 1.33 3.87) (layer F.SilkS) (width 0.12))
    (fp_line (start -1.27 -0.635) (end -0.635 -1.27) (layer F.Fab) (width 0.1))
    (fp_line (start -1.27 3.81) (end -1.27 -0.635) (layer F.Fab) (width 0.1))
    (fp_line (start 1.27 3.81) (end -1.27 3.81) (layer F.Fab) (width 0.1))
    (fp_line (start 1.27 -1.27) (end 1.27 3.81) (layer F.Fab) (width 0.1))
    (fp_line (start -0.635 -1.27) (end 1.27 -1.27) (layer F.Fab) (width 0.1))
    (pad 2 thru_hole oval (at 0 2.54 270) (size 1.7 1.7) (drill 1) (layers *.Cu *.Mask)
      (net 1 GND))
    (pad 1 thru_hole rect (at 0 0 270) (size 1.7 1.7) (drill 1) (layers *.Cu *.Mask)
      (net 2 +3V3))
    (model ${KISYS3DMOD}/Connector_PinHeader_2.54mm.3dshapes/PinHeader_1x02_P2.54mm_Vertical.wrl
      (at (xyz 0 0 0))
      (scale (xyz 1 1 1))
      (rotate (xyz 0 0 0))
    )
  )

  (module Connector_PinHeader_2.54mm:PinHeader_1x04_P2.54mm_Vertical (layer F.Cu) (tedit 59FED5CC) (tstamp 5FAABFFE)
    (at 187.96 69.85)
    (descr "Through hole straight pin header, 1x04, 2.54mm pitch, single row")
    (tags "Through hole pin header THT 1x04 2.54mm single row")
    (path /5FA01373)
    (fp_text reference J3 (at -2.54 3.81 90) (layer F.SilkS)
      (effects (font (size 1 1) (thickness 0.15)))
    )
    (fp_text value ACCEL_I2C (at 2.54 3.81 90) (layer F.SilkS)
      (effects (font (size 1 1) (thickness 0.15)))
    )
    (fp_text user %R (at 0 3.81 90) (layer F.Fab)
      (effects (font (size 1 1) (thickness 0.15)))
    )
    (fp_line (start 1.8 -1.8) (end -1.8 -1.8) (layer F.CrtYd) (width 0.05))
    (fp_line (start 1.8 9.4) (end 1.8 -1.8) (layer F.CrtYd) (width 0.05))
    (fp_line (start -1.8 9.4) (end 1.8 9.4) (layer F.CrtYd) (width 0.05))
    (fp_line (start -1.8 -1.8) (end -1.8 9.4) (layer F.CrtYd) (width 0.05))
    (fp_line (start -1.33 -1.33) (end 0 -1.33) (layer F.SilkS) (width 0.12))
    (fp_line (start -1.33 0) (end -1.33 -1.33) (layer F.SilkS) (width 0.12))
    (fp_line (start -1.33 1.27) (end 1.33 1.27) (layer F.SilkS) (width 0.12))
    (fp_line (start 1.33 1.27) (end 1.33 8.95) (layer F.SilkS) (width 0.12))
    (fp_line (start -1.33 1.27) (end -1.33 8.95) (layer F.SilkS) (width 0.12))
    (fp_line (start -1.33 8.95) (end 1.33 8.95) (layer F.SilkS) (width 0.12))
    (fp_line (start -1.27 -0.635) (end -0.635 -1.27) (layer F.Fab) (width 0.1))
    (fp_line (start -1.27 8.89) (end -1.27 -0.635) (layer F.Fab) (width 0.1))
    (fp_line (start 1.27 8.89) (end -1.27 8.89) (layer F.Fab) (width 0.1))
    (fp_line (start 1.27 -1.27) (end 1.27 8.89) (layer F.Fab) (width 0.1))
    (fp_line (start -0.635 -1.27) (end 1.27 -1.27) (layer F.Fab) (width 0.1))
    (pad 4 thru_hole oval (at 0 7.62) (size 1.7 1.7) (drill 1) (layers *.Cu *.Mask)
      (net 4 SCL))
    (pad 3 thru_hole oval (at 0 5.08) (size 1.7 1.7) (drill 1) (layers *.Cu *.Mask)
      (net 5 SDA))
    (pad 2 thru_hole oval (at 0 2.54) (size 1.7 1.7) (drill 1) (layers *.Cu *.Mask)
      (net 1 GND))
    (pad 1 thru_hole rect (at 0 0) (size 1.7 1.7) (drill 1) (layers *.Cu *.Mask)
      (net 2 +3V3))
    (model ${KISYS3DMOD}/Connector_PinHeader_2.54mm.3dshapes/PinHeader_1x04_P2.54mm_Vertical.wrl
      (at (xyz 0 0 0))
      (scale (xyz 1 1 1))
      (rotate (xyz 0 0 0))
    )
  )

  (module Connector_PinHeader_2.54mm:PinHeader_1x02_P2.54mm_Vertical (layer F.Cu) (tedit 59FED5CC) (tstamp 5FAABFE6)
    (at 163.83 125.73 270)
    (descr "Through hole straight pin header, 1x02, 2.54mm pitch, single row")
    (tags "Through hole pin header THT 1x02 2.54mm single row")
    (path /5F9F2723)
    (fp_text reference J2 (at -1.27 5.334 180) (layer F.SilkS)
      (effects (font (size 1 1) (thickness 0.15)))
    )
    (fp_text value 5V_RAIL (at -2.54 1.27 180) (layer F.SilkS)
      (effects (font (size 1 1) (thickness 0.15)))
    )
    (fp_text user %R (at 0 1.27) (layer F.Fab)
      (effects (font (size 1 1) (thickness 0.15)))
    )
    (fp_line (start 1.8 -1.8) (end -1.8 -1.8) (layer F.CrtYd) (width 0.05))
    (fp_line (start 1.8 4.35) (end 1.8 -1.8) (layer F.CrtYd) (width 0.05))
    (fp_line (start -1.8 4.35) (end 1.8 4.35) (layer F.CrtYd) (width 0.05))
    (fp_line (start -1.8 -1.8) (end -1.8 4.35) (layer F.CrtYd) (width 0.05))
    (fp_line (start -1.33 -1.33) (end 0 -1.33) (layer F.SilkS) (width 0.12))
    (fp_line (start -1.33 0) (end -1.33 -1.33) (layer F.SilkS) (width 0.12))
    (fp_line (start -1.33 1.27) (end 1.33 1.27) (layer F.SilkS) (width 0.12))
    (fp_line (start 1.33 1.27) (end 1.33 3.87) (layer F.SilkS) (width 0.12))
    (fp_line (start -1.33 1.27) (end -1.33 3.87) (layer F.SilkS) (width 0.12))
    (fp_line (start -1.33 3.87) (end 1.33 3.87) (layer F.SilkS) (width 0.12))
    (fp_line (start -1.27 -0.635) (end -0.635 -1.27) (layer F.Fab) (width 0.1))
    (fp_line (start -1.27 3.81) (end -1.27 -0.635) (layer F.Fab) (width 0.1))
    (fp_line (start 1.27 3.81) (end -1.27 3.81) (layer F.Fab) (width 0.1))
    (fp_line (start 1.27 -1.27) (end 1.27 3.81) (layer F.Fab) (width 0.1))
    (fp_line (start -0.635 -1.27) (end 1.27 -1.27) (layer F.Fab) (width 0.1))
    (pad 2 thru_hole oval (at 0 2.54 270) (size 1.7 1.7) (drill 1) (layers *.Cu *.Mask)
      (net 1 GND))
    (pad 1 thru_hole rect (at 0 0 270) (size 1.7 1.7) (drill 1) (layers *.Cu *.Mask)
      (net 3 +5V))
    (model ${KISYS3DMOD}/Connector_PinHeader_2.54mm.3dshapes/PinHeader_1x02_P2.54mm_Vertical.wrl
      (at (xyz 0 0 0))
      (scale (xyz 1 1 1))
      (rotate (xyz 0 0 0))
    )
  )

  (module Connector_PinHeader_2.54mm:PinHeader_1x03_P2.54mm_Vertical (layer F.Cu) (tedit 59FED5CC) (tstamp 5FAABFD0)
    (at 129.54 135.89 90)
    (descr "Through hole straight pin header, 1x03, 2.54mm pitch, single row")
    (tags "Through hole pin header THT 1x03 2.54mm single row")
    (path /5FA8085B)
    (fp_text reference J1 (at 0.254 7.874 180) (layer F.SilkS)
      (effects (font (size 1 1) (thickness 0.15)))
    )
    (fp_text value SPEED_POT (at -2.54 2.54 180) (layer F.SilkS)
      (effects (font (size 0.7 0.7) (thickness 0.15)))
    )
    (fp_text user %R (at 0 2.54) (layer F.Fab)
      (effects (font (size 1 1) (thickness 0.15)))
    )
    (fp_line (start 1.8 -1.8) (end -1.8 -1.8) (layer F.CrtYd) (width 0.05))
    (fp_line (start 1.8 6.85) (end 1.8 -1.8) (layer F.CrtYd) (width 0.05))
    (fp_line (start -1.8 6.85) (end 1.8 6.85) (layer F.CrtYd) (width 0.05))
    (fp_line (start -1.8 -1.8) (end -1.8 6.85) (layer F.CrtYd) (width 0.05))
    (fp_line (start -1.33 -1.33) (end 0 -1.33) (layer F.SilkS) (width 0.12))
    (fp_line (start -1.33 0) (end -1.33 -1.33) (layer F.SilkS) (width 0.12))
    (fp_line (start -1.33 1.27) (end 1.33 1.27) (layer F.SilkS) (width 0.12))
    (fp_line (start 1.33 1.27) (end 1.33 6.41) (layer F.SilkS) (width 0.12))
    (fp_line (start -1.33 1.27) (end -1.33 6.41) (layer F.SilkS) (width 0.12))
    (fp_line (start -1.33 6.41) (end 1.33 6.41) (layer F.SilkS) (width 0.12))
    (fp_line (start -1.27 -0.635) (end -0.635 -1.27) (layer F.Fab) (width 0.1))
    (fp_line (start -1.27 6.35) (end -1.27 -0.635) (layer F.Fab) (width 0.1))
    (fp_line (start 1.27 6.35) (end -1.27 6.35) (layer F.Fab) (width 0.1))
    (fp_line (start 1.27 -1.27) (end 1.27 6.35) (layer F.Fab) (width 0.1))
    (fp_line (start -0.635 -1.27) (end 1.27 -1.27) (layer F.Fab) (width 0.1))
    (pad 3 thru_hole oval (at 0 5.08 90) (size 1.7 1.7) (drill 1) (layers *.Cu *.Mask)
      (net 1 GND))
    (pad 2 thru_hole oval (at 0 2.54 90) (size 1.7 1.7) (drill 1) (layers *.Cu *.Mask)
      (net 12 SPEED_POT))
    (pad 1 thru_hole rect (at 0 0 90) (size 1.7 1.7) (drill 1) (layers *.Cu *.Mask)
      (net 2 +3V3))
    (model ${KISYS3DMOD}/Connector_PinHeader_2.54mm.3dshapes/PinHeader_1x03_P2.54mm_Vertical.wrl
      (at (xyz 0 0 0))
      (scale (xyz 1 1 1))
      (rotate (xyz 0 0 0))
    )
  )

  (module MountingHole:MountingHole_3.2mm_M3_Pad (layer F.Cu) (tedit 56D1B4CB) (tstamp 5FAABFB9)
    (at 194.31 137.16)
    (descr "Mounting Hole 3.2mm, M3")
    (tags "mounting hole 3.2mm m3")
    (path /5FA135C7)
    (attr virtual)
    (fp_text reference H4 (at 0 -4.2) (layer F.SilkS)
      (effects (font (size 1 1) (thickness 0.15)))
    )
    (fp_text value MountingHole_Pad (at -10.16 2.54) (layer F.Fab)
      (effects (font (size 1 1) (thickness 0.15)))
    )
    (fp_circle (center 0 0) (end 3.45 0) (layer F.CrtYd) (width 0.05))
    (fp_circle (center 0 0) (end 3.2 0) (layer Cmts.User) (width 0.15))
    (fp_text user %R (at 0.3 0) (layer F.Fab)
      (effects (font (size 1 1) (thickness 0.15)))
    )
    (pad 1 thru_hole circle (at 0 0) (size 6.4 6.4) (drill 3.2) (layers *.Cu *.Mask)
      (net 1 GND))
  )

  (module MountingHole:MountingHole_3.2mm_M3_Pad (layer F.Cu) (tedit 56D1B4CB) (tstamp 5FAB1FBE)
    (at 110.49 63.5)
    (descr "Mounting Hole 3.2mm, M3")
    (tags "mounting hole 3.2mm m3")
    (path /5FA132B6)
    (attr virtual)
    (fp_text reference H3 (at 0 5.08) (layer F.SilkS)
      (effects (font (size 1 1) (thickness 0.15)))
    )
    (fp_text value MountingHole_Pad (at 8.89 3.81) (layer F.Fab)
      (effects (font (size 1 1) (thickness 0.15)))
    )
    (fp_circle (center 0 0) (end 3.45 0) (layer F.CrtYd) (width 0.05))
    (fp_circle (center 0 0) (end 3.2 0) (layer Cmts.User) (width 0.15))
    (fp_text user %R (at 0.3 0) (layer F.Fab)
      (effects (font (size 1 1) (thickness 0.15)))
    )
    (pad 1 thru_hole circle (at 0 0) (size 6.4 6.4) (drill 3.2) (layers *.Cu *.Mask)
      (net 1 GND))
  )

  (module MountingHole:MountingHole_3.2mm_M3_Pad (layer F.Cu) (tedit 56D1B4CB) (tstamp 5FAABFA9)
    (at 194.31 63.5)
    (descr "Mounting Hole 3.2mm, M3")
    (tags "mounting hole 3.2mm m3")
    (path /5FA12FBF)
    (attr virtual)
    (fp_text reference H2 (at 0 5.08) (layer F.SilkS)
      (effects (font (size 1 1) (thickness 0.15)))
    )
    (fp_text value MountingHole_Pad (at -8.89 -3.81) (layer F.Fab)
      (effects (font (size 1 1) (thickness 0.15)))
    )
    (fp_circle (center 0 0) (end 3.45 0) (layer F.CrtYd) (width 0.05))
    (fp_circle (center 0 0) (end 3.2 0) (layer Cmts.User) (width 0.15))
    (fp_text user %R (at 0.3 0) (layer F.Fab)
      (effects (font (size 1 1) (thickness 0.15)))
    )
    (pad 1 thru_hole circle (at 0 0) (size 6.4 6.4) (drill 3.2) (layers *.Cu *.Mask)
      (net 1 GND))
  )

  (module MountingHole:MountingHole_3.2mm_M3_Pad (layer F.Cu) (tedit 56D1B4CB) (tstamp 5FAABFA1)
    (at 110.49 137.16)
    (descr "Mounting Hole 3.2mm, M3")
    (tags "mounting hole 3.2mm m3")
    (path /5FA12293)
    (attr virtual)
    (fp_text reference H1 (at 0 -4.2) (layer F.SilkS)
      (effects (font (size 1 1) (thickness 0.15)))
    )
    (fp_text value MountingHole_Pad (at 10.16 2.54) (layer F.Fab)
      (effects (font (size 1 1) (thickness 0.15)))
    )
    (fp_circle (center 0 0) (end 3.45 0) (layer F.CrtYd) (width 0.05))
    (fp_circle (center 0 0) (end 3.2 0) (layer Cmts.User) (width 0.15))
    (fp_text user %R (at 0.3 0) (layer F.Fab)
      (effects (font (size 1 1) (thickness 0.15)))
    )
    (pad 1 thru_hole circle (at 0 0) (size 6.4 6.4) (drill 3.2) (layers *.Cu *.Mask)
      (net 1 GND))
  )

  (gr_text "5V OUT" (at 120.904 135.128) (layer F.SilkS)
    (effects (font (size 1 1) (thickness 0.15)))
  )
  (gr_text + (at 123.19 132.588) (layer F.SilkS)
    (effects (font (size 1 1) (thickness 0.15)))
  )
  (gr_text - (at 118.11 132.588) (layer F.SilkS)
    (effects (font (size 1 1) (thickness 0.15)))
  )
  (gr_text + (at 133.35 66.04) (layer F.SilkS)
    (effects (font (size 1 1) (thickness 0.15)))
  )
  (gr_text - (at 129.286 66.04) (layer F.SilkS)
    (effects (font (size 1 1) (thickness 0.15)))
  )
  (gr_text "24V IN" (at 131.064 63.246) (layer F.SilkS)
    (effects (font (size 1 1) (thickness 0.15)))
  )
  (gr_text + (at 127 130.81) (layer F.SilkS)
    (effects (font (size 1 1) (thickness 0.15)))
  )
  (gr_text + (at 127 135.89) (layer F.SilkS)
    (effects (font (size 1 1) (thickness 0.15)) (justify mirror))
  )
  (gr_text STP (at 178.562 129.54) (layer F.SilkS)
    (effects (font (size 1 1) (thickness 0.15)))
  )
  (gr_text DIR (at 178.562 127) (layer F.SilkS)
    (effects (font (size 1 1) (thickness 0.15)))
  )
  (gr_text + (at 187.96 109.22) (layer F.SilkS)
    (effects (font (size 1 1) (thickness 0.15)))
  )
  (gr_text + (at 187.96 95.25) (layer F.SilkS)
    (effects (font (size 1 1) (thickness 0.15)))
  )
  (gr_text + (at 187.96 81.28) (layer F.SilkS)
    (effects (font (size 1 1) (thickness 0.15)))
  )
  (gr_text + (at 187.96 67.31) (layer F.SilkS)
    (effects (font (size 1 1) (thickness 0.15)))
  )
  (gr_text + (at 166.37 125.73) (layer F.SilkS)
    (effects (font (size 1 1) (thickness 0.15)))
  )
  (gr_text + (at 166.37 130.81) (layer F.SilkS)
    (effects (font (size 1 1) (thickness 0.15)))
  )
  (gr_text v0.1.0 (at 172.72 67.31) (layer F.SilkS)
    (effects (font (size 1 1) (thickness 0.15)) (justify left))
  )
  (gr_text "CLINOSTAT CONTROL BOARD" (at 149.86 67.31) (layer F.SilkS)
    (effects (font (size 1 1) (thickness 0.15)) (justify left))
  )
  (gr_text "PRODUCED BY KERSNIKOVA" (at 149.86 69.85) (layer F.SilkS)
    (effects (font (size 1 1) (thickness 0.15)) (justify left))
  )
  (gr_text "001: EROMATASE" (at 149.86 63.5) (layer F.SilkS)
    (effects (font (size 1 1) (thickness 0.15)) (justify left))
  )
  (gr_text "XENOLOGICAL ENTANGLEMENTS" (at 149.86 60.96) (layer F.SilkS) (tstamp 5FAB25AA)
    (effects (font (size 1 1) (thickness 0.15)) (justify left))
  )
  (gr_line (start 105.41 63.5) (end 105.41 137.16) (layer Edge.Cuts) (width 0.05) (tstamp 5FAB243C))
  (gr_line (start 194.31 58.42) (end 110.49 58.42) (layer Edge.Cuts) (width 0.05) (tstamp 5FAB243B))
  (gr_line (start 199.39 137.16) (end 199.39 63.5) (layer Edge.Cuts) (width 0.05) (tstamp 5FAB243A))
  (gr_line (start 110.49 142.24) (end 194.31 142.24) (layer Edge.Cuts) (width 0.05) (tstamp 5FAB2439))
  (gr_arc (start 194.31 137.16) (end 194.31 142.24) (angle -90) (layer Edge.Cuts) (width 0.05))
  (gr_arc (start 110.49 137.16) (end 105.41 137.16) (angle -90) (layer Edge.Cuts) (width 0.05))
  (gr_arc (start 110.49 63.5) (end 110.49 58.42) (angle -90) (layer Edge.Cuts) (width 0.05))
  (gr_arc (start 194.31 63.5) (end 199.39 63.5) (angle -90) (layer Edge.Cuts) (width 0.05))

  (segment (start 111.9 137.16) (end 110.49 137.16) (width 0.25) (layer B.Cu) (net 1))
  (segment (start 118.238 130.822) (end 111.9 137.16) (width 0.25) (layer B.Cu) (net 1))
  (segment (start 133.770001 129.960001) (end 134.62 130.81) (width 0.25) (layer B.Cu) (net 1))
  (segment (start 133.306999 129.496999) (end 133.770001 129.960001) (width 0.25) (layer B.Cu) (net 1))
  (segment (start 119.563001 129.496999) (end 133.306999 129.496999) (width 0.25) (layer B.Cu) (net 1))
  (segment (start 118.238 130.822) (end 119.563001 129.496999) (width 0.25) (layer B.Cu) (net 1))
  (segment (start 133.770001 136.739999) (end 134.62 135.89) (width 0.25) (layer B.Cu) (net 1))
  (segment (start 133.444999 137.065001) (end 133.770001 136.739999) (width 0.25) (layer B.Cu) (net 1))
  (segment (start 124.481001 137.065001) (end 133.444999 137.065001) (width 0.25) (layer B.Cu) (net 1))
  (segment (start 118.238 130.822) (end 124.481001 137.065001) (width 0.25) (layer B.Cu) (net 1))
  (segment (start 156.21 135.89) (end 161.29 130.81) (width 0.25) (layer B.Cu) (net 1))
  (segment (start 134.62 135.89) (end 156.21 135.89) (width 0.25) (layer B.Cu) (net 1))
  (segment (start 115.312 68.322) (end 129.238 68.322) (width 0.25) (layer B.Cu) (net 1))
  (segment (start 110.49 63.5) (end 115.312 68.322) (width 0.25) (layer B.Cu) (net 1))
  (segment (start 188.809999 71.540001) (end 187.96 72.39) (width 0.25) (layer B.Cu) (net 1))
  (segment (start 191.110001 69.239999) (end 188.809999 71.540001) (width 0.25) (layer B.Cu) (net 1))
  (segment (start 191.110001 65.429999) (end 191.110001 69.239999) (width 0.25) (layer B.Cu) (net 1))
  (segment (start 194.31 62.23) (end 191.110001 65.429999) (width 0.25) (layer B.Cu) (net 1))
  (segment (start 188.809999 85.510001) (end 187.96 86.36) (width 0.25) (layer B.Cu) (net 1))
  (segment (start 190.5 83.82) (end 188.809999 85.510001) (width 0.25) (layer B.Cu) (net 1))
  (segment (start 190.5 74.93) (end 190.5 83.82) (width 0.25) (layer B.Cu) (net 1))
  (segment (start 187.96 72.39) (end 190.5 74.93) (width 0.25) (layer B.Cu) (net 1))
  (segment (start 188.809999 99.480001) (end 187.96 100.33) (width 0.25) (layer B.Cu) (net 1))
  (segment (start 189.135001 99.154999) (end 188.809999 99.480001) (width 0.25) (layer B.Cu) (net 1))
  (segment (start 189.135001 87.535001) (end 189.135001 99.154999) (width 0.25) (layer B.Cu) (net 1))
  (segment (start 187.96 86.36) (end 189.135001 87.535001) (width 0.25) (layer B.Cu) (net 1))
  (segment (start 194.31 66.755483) (end 194.31 62.23) (width 0.25) (layer B.Cu) (net 1))
  (segment (start 177.480001 83.585482) (end 194.31 66.755483) (width 0.25) (layer B.Cu) (net 1))
  (segment (start 177.480001 85.409999) (end 177.480001 83.585482) (width 0.25) (layer B.Cu) (net 1))
  (segment (start 176.53 86.36) (end 177.480001 85.409999) (width 0.25) (layer B.Cu) (net 1))
  (segment (start 188.809999 128.690001) (end 187.96 129.54) (width 0.25) (layer B.Cu) (net 1))
  (segment (start 189.23 128.27) (end 188.809999 128.690001) (width 0.25) (layer B.Cu) (net 1))
  (segment (start 189.23 101.6) (end 189.23 128.27) (width 0.25) (layer B.Cu) (net 1))
  (segment (start 187.96 100.33) (end 189.23 101.6) (width 0.25) (layer B.Cu) (net 1))
  (segment (start 177.894999 128.364999) (end 176.53 127) (width 0.25) (layer B.Cu) (net 1))
  (segment (start 187.96 129.54) (end 186.784999 128.364999) (width 0.25) (layer B.Cu) (net 1))
  (segment (start 186.784999 128.364999) (end 177.894999 128.364999) (width 0.25) (layer B.Cu) (net 1))
  (segment (start 150.505001 118.755001) (end 151.13 119.38) (width 0.25) (layer B.Cu) (net 1))
  (segment (start 149.86 118.11) (end 150.505001 118.755001) (width 0.25) (layer B.Cu) (net 1))
  (segment (start 149.86 105.41) (end 149.86 118.11) (width 0.25) (layer B.Cu) (net 1))
  (segment (start 151.13 104.14) (end 149.86 105.41) (width 0.25) (layer B.Cu) (net 1))
  (via (at 143.51 132.08) (size 0.8) (drill 0.4) (layers F.Cu B.Cu) (net 2))
  (segment (start 142.5725 132.08) (end 142.24 131.7475) (width 0.25) (layer F.Cu) (net 2))
  (segment (start 143.51 132.08) (end 142.5725 132.08) (width 0.25) (layer F.Cu) (net 2))
  (segment (start 187.96 130.81) (end 194.31 137.16) (width 0.25) (layer B.Cu) (net 1))
  (segment (start 187.96 129.54) (end 187.96 130.81) (width 0.25) (layer B.Cu) (net 1))
  (segment (start 176.53 127) (end 171.45 127) (width 0.25) (layer B.Cu) (net 1))
  (segment (start 171.45 127) (end 161.29 127) (width 0.25) (layer B.Cu) (net 1))
  (segment (start 161.29 130.81) (end 161.29 127) (width 0.25) (layer B.Cu) (net 1))
  (segment (start 161.29 127) (end 161.29 125.73) (width 0.25) (layer B.Cu) (net 1))
  (segment (start 133.001999 134.075001) (end 136.434999 134.075001) (width 0.25) (layer B.Cu) (net 1))
  (segment (start 132.624999 133.698001) (end 133.001999 134.075001) (width 0.25) (layer B.Cu) (net 1))
  (segment (start 132.624999 132.805001) (end 132.624999 133.698001) (width 0.25) (layer B.Cu) (net 1))
  (segment (start 134.62 130.81) (end 132.624999 132.805001) (width 0.25) (layer B.Cu) (net 1))
  (segment (start 140.97 129.54) (end 143.51 132.08) (width 0.25) (layer B.Cu) (net 2))
  (segment (start 130.237999 67.322001) (end 129.238 68.322) (width 0.25) (layer B.Cu) (net 1))
  (segment (start 130.563001 66.996999) (end 130.237999 67.322001) (width 0.25) (layer B.Cu) (net 1))
  (segment (start 145.873001 66.996999) (end 130.563001 66.996999) (width 0.25) (layer B.Cu) (net 1))
  (segment (start 152.080001 73.203999) (end 145.873001 66.996999) (width 0.25) (layer B.Cu) (net 1))
  (segment (start 152.080001 81.736001) (end 152.080001 73.203999) (width 0.25) (layer B.Cu) (net 1))
  (segment (start 150.816409 82.230001) (end 151.586001 82.230001) (width 0.25) (layer B.Cu) (net 1))
  (segment (start 148.908205 84.138205) (end 150.816409 82.230001) (width 0.25) (layer B.Cu) (net 1))
  (segment (start 148.908205 101.918205) (end 148.908205 84.138205) (width 0.25) (layer B.Cu) (net 1))
  (segment (start 151.586001 82.230001) (end 152.080001 81.736001) (width 0.25) (layer B.Cu) (net 1))
  (segment (start 151.13 104.14) (end 148.908205 101.918205) (width 0.25) (layer B.Cu) (net 1))
  (segment (start 129.54 130.81) (end 129.54 135.89) (width 0.25) (layer F.Cu) (net 2))
  (segment (start 187.96 82.72) (end 187.96 83.82) (width 0.25) (layer F.Cu) (net 2))
  (segment (start 186.784999 81.544999) (end 187.96 82.72) (width 0.25) (layer F.Cu) (net 2))
  (segment (start 186.784999 71.825999) (end 186.784999 81.544999) (width 0.25) (layer F.Cu) (net 2))
  (segment (start 188.760998 69.85) (end 186.784999 71.825999) (width 0.25) (layer F.Cu) (net 2))
  (segment (start 187.96 69.85) (end 188.760998 69.85) (width 0.25) (layer F.Cu) (net 2))
  (segment (start 187.96 96.69) (end 187.96 97.79) (width 0.25) (layer F.Cu) (net 2))
  (segment (start 186.784999 95.514999) (end 187.96 96.69) (width 0.25) (layer F.Cu) (net 2))
  (segment (start 186.784999 83.895001) (end 186.784999 95.514999) (width 0.25) (layer F.Cu) (net 2))
  (segment (start 186.86 83.82) (end 186.784999 83.895001) (width 0.25) (layer F.Cu) (net 2))
  (segment (start 187.96 83.82) (end 186.86 83.82) (width 0.25) (layer F.Cu) (net 2))
  (segment (start 188.809999 127.849999) (end 187.96 127) (width 0.25) (layer F.Cu) (net 2))
  (segment (start 189.135001 128.175001) (end 188.809999 127.849999) (width 0.25) (layer F.Cu) (net 2))
  (segment (start 189.135001 130.104001) (end 189.135001 128.175001) (width 0.25) (layer F.Cu) (net 2))
  (segment (start 188.429002 130.81) (end 189.135001 130.104001) (width 0.25) (layer F.Cu) (net 2))
  (segment (start 163.83 130.81) (end 188.429002 130.81) (width 0.25) (layer F.Cu) (net 2))
  (via (at 185.42 104.14) (size 0.8) (drill 0.4) (layers F.Cu B.Cu) (net 2))
  (segment (start 185.42 108.12) (end 185.42 104.14) (width 0.25) (layer F.Cu) (net 2))
  (segment (start 187.96 111.76) (end 187.96 110.66) (width 0.25) (layer F.Cu) (net 2))
  (segment (start 187.96 110.66) (end 185.42 108.12) (width 0.25) (layer F.Cu) (net 2))
  (via (at 185.42 97.79) (size 0.8) (drill 0.4) (layers F.Cu B.Cu) (net 2))
  (segment (start 185.42 104.14) (end 185.42 97.79) (width 0.25) (layer B.Cu) (net 2))
  (segment (start 185.42 97.79) (end 187.96 97.79) (width 0.25) (layer F.Cu) (net 2))
  (segment (start 188.809999 126.150001) (end 187.96 127) (width 0.25) (layer F.Cu) (net 2))
  (segment (start 189.135001 125.824999) (end 188.809999 126.150001) (width 0.25) (layer F.Cu) (net 2))
  (segment (start 189.135001 111.835001) (end 189.135001 125.824999) (width 0.25) (layer F.Cu) (net 2))
  (segment (start 189.06 111.76) (end 189.135001 111.835001) (width 0.25) (layer F.Cu) (net 2))
  (segment (start 187.96 111.76) (end 189.06 111.76) (width 0.25) (layer F.Cu) (net 2))
  (segment (start 175.905001 73.035001) (end 176.53 73.66) (width 1) (layer F.Cu) (net 3))
  (segment (start 175.204999 72.334999) (end 175.905001 73.035001) (width 1) (layer F.Cu) (net 3))
  (segment (start 150.493999 72.334999) (end 175.204999 72.334999) (width 1) (layer F.Cu) (net 3))
  (segment (start 144.78 78.048998) (end 150.493999 72.334999) (width 1) (layer F.Cu) (net 3))
  (segment (start 144.78 119.38) (end 144.78 78.048998) (width 1) (layer F.Cu) (net 3))
  (segment (start 186.757919 105.41) (end 187.96 105.41) (width 0.5) (layer B.Cu) (net 4))
  (segment (start 176.022 105.41) (end 186.757919 105.41) (width 0.5) (layer B.Cu) (net 4))
  (segment (start 175.602001 105.829999) (end 176.022 105.41) (width 0.5) (layer B.Cu) (net 4))
  (segment (start 159.600001 105.829999) (end 175.602001 105.829999) (width 0.5) (layer B.Cu) (net 4))
  (segment (start 151.13 114.3) (end 159.600001 105.829999) (width 0.5) (layer B.Cu) (net 4))
  (segment (start 187.110001 92.289999) (end 187.96 91.44) (width 0.5) (layer B.Cu) (net 4))
  (segment (start 186.659999 92.740001) (end 187.110001 92.289999) (width 0.5) (layer B.Cu) (net 4))
  (segment (start 186.659999 104.109999) (end 186.659999 92.740001) (width 0.5) (layer B.Cu) (net 4))
  (segment (start 187.96 105.41) (end 186.659999 104.109999) (width 0.5) (layer B.Cu) (net 4))
  (segment (start 187.110001 78.319999) (end 187.96 77.47) (width 0.5) (layer B.Cu) (net 4))
  (segment (start 186.659999 78.770001) (end 187.110001 78.319999) (width 0.5) (layer B.Cu) (net 4))
  (segment (start 186.659999 90.139999) (end 186.659999 78.770001) (width 0.5) (layer B.Cu) (net 4))
  (segment (start 187.96 91.44) (end 186.659999 90.139999) (width 0.5) (layer B.Cu) (net 4))
  (segment (start 154.94 102.87) (end 187.96 102.87) (width 0.5) (layer F.Cu) (net 5))
  (segment (start 151.13 106.68) (end 154.94 102.87) (width 0.5) (layer F.Cu) (net 5))
  (segment (start 188.809999 89.749999) (end 187.96 88.9) (width 0.5) (layer F.Cu) (net 5))
  (segment (start 189.260001 90.200001) (end 188.809999 89.749999) (width 0.5) (layer F.Cu) (net 5))
  (segment (start 189.260001 101.569999) (end 189.260001 90.200001) (width 0.5) (layer F.Cu) (net 5))
  (segment (start 187.96 102.87) (end 189.260001 101.569999) (width 0.5) (layer F.Cu) (net 5))
  (segment (start 188.809999 75.779999) (end 187.96 74.93) (width 0.5) (layer F.Cu) (net 5))
  (segment (start 189.260001 76.230001) (end 188.809999 75.779999) (width 0.5) (layer F.Cu) (net 5))
  (segment (start 189.260001 87.599999) (end 189.260001 76.230001) (width 0.5) (layer F.Cu) (net 5))
  (segment (start 187.96 88.9) (end 189.260001 87.599999) (width 0.5) (layer F.Cu) (net 5))
  (via (at 160.02 104.14) (size 0.8) (drill 0.4) (layers F.Cu B.Cu) (net 6))
  (segment (start 181.61 129.54) (end 160.02 107.95) (width 0.25) (layer F.Cu) (net 6))
  (segment (start 160.02 107.95) (end 160.02 104.14) (width 0.25) (layer F.Cu) (net 6))
  (via (at 160.02 100.33) (size 0.8) (drill 0.4) (layers F.Cu B.Cu) (net 6))
  (segment (start 160.02 104.14) (end 160.02 100.33) (width 0.25) (layer B.Cu) (net 6))
  (segment (start 160.02 100.33) (end 151.13 91.44) (width 0.25) (layer F.Cu) (net 6))
  (via (at 161.29 104.14) (size 0.8) (drill 0.4) (layers F.Cu B.Cu) (net 7))
  (segment (start 161.29 105.58) (end 161.29 104.14) (width 0.25) (layer F.Cu) (net 7))
  (segment (start 181.61 127) (end 181.61 125.9) (width 0.25) (layer F.Cu) (net 7))
  (segment (start 181.61 125.9) (end 161.29 105.58) (width 0.25) (layer F.Cu) (net 7))
  (via (at 161.29 101.6) (size 0.8) (drill 0.4) (layers F.Cu B.Cu) (net 7))
  (segment (start 161.29 104.14) (end 161.29 101.6) (width 0.25) (layer B.Cu) (net 7))
  (segment (start 158.75 101.6) (end 151.13 93.98) (width 0.25) (layer F.Cu) (net 7))
  (segment (start 161.29 101.6) (end 158.75 101.6) (width 0.25) (layer F.Cu) (net 7))
  (via (at 162.56 104.14) (size 0.8) (drill 0.4) (layers F.Cu B.Cu) (net 8))
  (segment (start 162.56 104.276002) (end 162.56 104.14) (width 0.25) (layer F.Cu) (net 8))
  (segment (start 176.073999 117.790001) (end 162.56 104.276002) (width 0.25) (layer F.Cu) (net 8))
  (segment (start 187.96 124.46) (end 181.290001 117.790001) (width 0.25) (layer F.Cu) (net 8))
  (segment (start 181.290001 117.790001) (end 176.073999 117.790001) (width 0.25) (layer F.Cu) (net 8))
  (via (at 153.67 99.06) (size 0.8) (drill 0.4) (layers F.Cu B.Cu) (net 8))
  (segment (start 159.475001 104.865001) (end 153.67 99.06) (width 0.25) (layer B.Cu) (net 8))
  (segment (start 162.56 104.14) (end 161.834999 104.865001) (width 0.25) (layer B.Cu) (net 8))
  (segment (start 161.834999 104.865001) (end 159.475001 104.865001) (width 0.25) (layer B.Cu) (net 8))
  (segment (start 153.67 99.06) (end 151.13 99.06) (width 0.25) (layer F.Cu) (net 8))
  (via (at 167.64 104.14) (size 0.8) (drill 0.4) (layers F.Cu B.Cu) (net 9))
  (segment (start 167.64 104.276002) (end 167.64 104.14) (width 0.25) (layer F.Cu) (net 9))
  (segment (start 176.073999 112.710001) (end 167.64 104.276002) (width 0.25) (layer F.Cu) (net 9))
  (segment (start 187.96 119.38) (end 181.290001 112.710001) (width 0.25) (layer F.Cu) (net 9))
  (segment (start 181.290001 112.710001) (end 176.073999 112.710001) (width 0.25) (layer F.Cu) (net 9))
  (segment (start 160.02 96.52) (end 151.13 96.52) (width 0.25) (layer B.Cu) (net 9))
  (segment (start 167.64 104.14) (end 160.02 96.52) (width 0.25) (layer B.Cu) (net 9))
  (segment (start 177.154999 104.764999) (end 176.53 104.14) (width 0.25) (layer F.Cu) (net 10))
  (segment (start 177.480001 105.090001) (end 177.154999 104.764999) (width 0.25) (layer F.Cu) (net 10))
  (segment (start 177.480001 106.360001) (end 177.480001 105.090001) (width 0.25) (layer F.Cu) (net 10))
  (segment (start 187.96 116.84) (end 177.480001 106.360001) (width 0.25) (layer F.Cu) (net 10))
  (via (at 179.07 106.68) (size 0.8) (drill 0.4) (layers F.Cu B.Cu) (net 11))
  (segment (start 187.96 114.3) (end 186.69 114.3) (width 0.25) (layer F.Cu) (net 11))
  (segment (start 186.69 114.3) (end 179.07 106.68) (width 0.25) (layer F.Cu) (net 11))
  (segment (start 179.07 106.68) (end 176.53 106.68) (width 0.25) (layer B.Cu) (net 11))
  (via (at 156.21 133.35) (size 0.8) (drill 0.4) (layers F.Cu B.Cu) (net 12))
  (segment (start 132.08 135.89) (end 134.62 133.35) (width 0.25) (layer F.Cu) (net 12))
  (segment (start 134.62 133.35) (end 156.21 133.35) (width 0.25) (layer F.Cu) (net 12))
  (via (at 173.99 109.22) (size 0.8) (drill 0.4) (layers F.Cu B.Cu) (net 12))
  (segment (start 156.21 133.35) (end 156.21 127) (width 0.25) (layer B.Cu) (net 12))
  (segment (start 156.21 127) (end 173.99 109.22) (width 0.25) (layer B.Cu) (net 12))
  (segment (start 173.99 109.22) (end 176.53 109.22) (width 0.25) (layer F.Cu) (net 12))
  (via (at 185.42 120.65) (size 0.8) (drill 0.4) (layers F.Cu B.Cu) (net 13))
  (segment (start 187.96 121.92) (end 186.69 121.92) (width 0.25) (layer F.Cu) (net 13))
  (segment (start 186.69 121.92) (end 185.42 120.65) (width 0.25) (layer F.Cu) (net 13))
  (via (at 168.91 120.65) (size 0.8) (drill 0.4) (layers F.Cu B.Cu) (net 13))
  (segment (start 185.42 120.65) (end 168.91 120.65) (width 0.25) (layer B.Cu) (net 13))
  (segment (start 154.94 120.65) (end 151.13 116.84) (width 0.25) (layer F.Cu) (net 13))
  (segment (start 168.91 120.65) (end 154.94 120.65) (width 0.25) (layer F.Cu) (net 13))
  (segment (start 132.08 130.81) (end 132.08 132.08) (width 0.25) (layer F.Cu) (net 14))
  (via (at 133.35 133.35) (size 0.8) (drill 0.4) (layers F.Cu B.Cu) (net 14))
  (segment (start 132.08 132.08) (end 133.35 133.35) (width 0.25) (layer F.Cu) (net 14))
  (segment (start 135.662999 96.747001) (end 150.505001 81.904999) (width 0.25) (layer B.Cu) (net 14))
  (segment (start 135.662999 126.948001) (end 135.662999 96.747001) (width 0.25) (layer B.Cu) (net 14))
  (segment (start 135.795001 127.080003) (end 135.662999 126.948001) (width 0.25) (layer B.Cu) (net 14))
  (segment (start 150.505001 81.904999) (end 151.13 81.28) (width 0.25) (layer B.Cu) (net 14))
  (segment (start 135.795001 131.470684) (end 135.795001 127.080003) (width 0.25) (layer B.Cu) (net 14))
  (segment (start 133.915685 133.35) (end 135.795001 131.470684) (width 0.25) (layer B.Cu) (net 14))
  (segment (start 133.35 133.35) (end 133.915685 133.35) (width 0.25) (layer B.Cu) (net 14))

  (zone (net 1) (net_name GND) (layer B.Cu) (tstamp 5FAB3CCE) (hatch edge 0.508)
    (connect_pads (clearance 0.508))
    (min_thickness 0.254)
    (fill (arc_segments 32) (thermal_gap 0.508) (thermal_bridge_width 0.508))
    (polygon
      (pts
        (xy 104.648 55.88) (xy 201.676 55.88) (xy 202.184 144.272) (xy 104.648 144.78) (xy 104.648 56.388)
      )
    )
  )
  (zone (net 2) (net_name +3V3) (layer F.Cu) (tstamp 5FAB3CCB) (hatch edge 0.508)
    (connect_pads (clearance 0.508))
    (min_thickness 0.254)
    (fill (arc_segments 32) (thermal_gap 0.508) (thermal_bridge_width 0.508))
    (polygon
      (pts
        (xy 104.648 55.88) (xy 201.676 55.88) (xy 202.184 144.272) (xy 104.648 144.78)
      )
    )
  )
  (zone (net 2) (net_name +3V3) (layer F.Cu) (tstamp 0) (hatch edge 0.508)
    (connect_pads (clearance 0.508))
    (min_thickness 0.254)
    (fill (arc_segments 32) (thermal_gap 0.508) (thermal_bridge_width 0.508))
    (polygon
      (pts
        (xy 104.648 55.88) (xy 201.676 55.88) (xy 202.184 144.272) (xy 104.648 144.78)
      )
    )
  )
  (zone (net 1) (net_name GND) (layer B.Cu) (tstamp 0) (hatch edge 0.508)
    (connect_pads (clearance 0.508))
    (min_thickness 0.254)
    (fill (arc_segments 32) (thermal_gap 0.508) (thermal_bridge_width 0.508))
    (polygon
      (pts
        (xy 104.648 55.88) (xy 201.676 55.88) (xy 202.184 144.272) (xy 104.648 144.78)
      )
    )
  )
  (zone (net 2) (net_name +3V3) (layer F.Cu) (tstamp 0) (hatch edge 0.508)
    (connect_pads (clearance 0.508))
    (min_thickness 0.254)
    (fill (arc_segments 32) (thermal_gap 0.508) (thermal_bridge_width 0.508))
    (polygon
      (pts
        (xy 104.648 55.88) (xy 201.676 55.88) (xy 202.184 144.272) (xy 104.648 144.78)
      )
    )
  )
  (zone (net 1) (net_name GND) (layer B.Cu) (tstamp 0) (hatch edge 0.508)
    (connect_pads (clearance 0.508))
    (min_thickness 0.254)
    (fill (arc_segments 32) (thermal_gap 0.508) (thermal_bridge_width 0.508))
    (polygon
      (pts
        (xy 104.648 55.88) (xy 201.676 55.88) (xy 201.676 144.272) (xy 104.648 144.78)
      )
    )
  )
)
